{
    "Saltador": {
        "checkpoints": [
            {
                "steps": 1146,
                "file_path": "results\\saltadorAmbOcells\\Saltador\\Saltador-1146.onnx",
                "reward": -0.8761682116261152,
                "creation_time": 1616000261.2093012
            }
        ],
        "final_checkpoint": {
            "steps": 1146,
            "file_path": "results\\saltadorAmbOcells\\Saltador.onnx",
            "reward": -0.8761682116261152,
            "creation_time": 1616000261.2093012
        }
    },
    "metadata": {
        "stats_format_version": "0.2.0",
        "mlagents_version": "0.24.1",
        "torch_version": "1.8.0+cpu"
    }
}