%YAML 1.1
%TAG !u! tag:unity3d.com,2011:
--- !u!114 &11400000
MonoBehaviour:
  m_ObjectHideFlags: 0
  m_CorrespondingSourceObject: {fileID: 0}
  m_PrefabInstance: {fileID: 0}
  m_PrefabAsset: {fileID: 0}
  m_GameObject: {fileID: 0}
  m_Enabled: 1
  m_EditorHideFlags: 0
  m_Script: {fileID: 11500000, guid: 4b24039c5994d3e41ae8d488a3e89d6c, type: 3}
  m_Name: PlayerDisparo
  m_EditorClassIdentifier: 
  speed: 12
  tts: 0.1
  ttl: 2
  damage: 0
  shootType: 0
  quantity: 3
  size: 1
  rotateAfterTime: 0
  changeDirection: 0
  changeDirectionShootCount: 2
  changeAngleXShoot: 0
  angleXShoot: -45
  invertAngleXShoot: 0
  invertAngleXShootCount: 2
  bala: {fileID: 0}
  color: {r: 1, g: 1, b: 1, a: 1}
  shouldStop: 1
