{
    "name": "root",
    "gauges": {
        "Saltador.Policy.Entropy.mean": {
            "value": 0.002553469268605113,
            "min": 0.001425300259143114,
            "max": 0.624638557434082,
            "count": 182
        },
        "Saltador.Policy.Entropy.sum": {
            "value": 25.787487030029297,
            "min": 14.00214958190918,
            "max": 6373.1875,
            "count": 182
        },
        "Saltador.Environment.EpisodeLength.mean": {
            "value": 89667.0,
            "min": 12.568521031207599,
            "max": 89667.0,
            "count": 52
        },
        "Saltador.Environment.EpisodeLength.sum": {
            "value": 89667.0,
            "min": 370.0,
            "max": 89667.0,
            "count": 52
        },
        "Saltador.Policy.ExtrinsicValueEstimate.mean": {
            "value": 0.040278349071741104,
            "min": -0.7777038216590881,
            "max": 0.048082973808050156,
            "count": 182
        },
        "Saltador.Policy.ExtrinsicValueEstimate.sum": {
            "value": 6.283422470092773,
            "min": -553.5587158203125,
            "max": 7.500943660736084,
            "count": 182
        },
        "Saltador.Environment.CumulativeReward.mean": {
            "value": 34.1000005453825,
            "min": -0.9234875321547332,
            "max": 34.1000005453825,
            "count": 52
        },
        "Saltador.Environment.CumulativeReward.sum": {
            "value": 34.1000005453825,
            "min": -669.3999912142754,
            "max": 34.1000005453825,
            "count": 52
        },
        "Saltador.Policy.ExtrinsicReward.mean": {
            "value": 34.1000005453825,
            "min": -0.9234875321547332,
            "max": 34.1000005453825,
            "count": 52
        },
        "Saltador.Policy.ExtrinsicReward.sum": {
            "value": 34.1000005453825,
            "min": -669.3999912142754,
            "max": 34.1000005453825,
            "count": 52
        },
        "Saltador.Losses.PolicyLoss.mean": {
            "value": 0.07466231807678317,
            "min": 0.05980536452261732,
            "max": 0.07647104675415903,
            "count": 182
        },
        "Saltador.Losses.PolicyLoss.sum": {
            "value": 0.3733115903839158,
            "min": 0.23922145809046927,
            "max": 0.38235523377079517,
            "count": 182
        },
        "Saltador.Losses.ValueLoss.mean": {
            "value": 3.733345299300102e-05,
            "min": 1.712803307801399e-05,
            "max": 0.014369955218474692,
            "count": 182
        },
        "Saltador.Losses.ValueLoss.sum": {
            "value": 0.00018666726496500513,
            "min": 8.564016539006995e-05,
            "max": 0.05747982087389877,
            "count": 182
        },
        "Saltador.Policy.LearningRate.mean": {
            "value": 2.7834090722e-05,
            "min": 2.7834090722e-05,
            "max": 0.0002992287002571,
            "count": 182
        },
        "Saltador.Policy.LearningRate.sum": {
            "value": 0.00013917045361,
            "min": 0.00011703876098720001,
            "max": 0.0014891619036127,
            "count": 182
        },
        "Saltador.Policy.Epsilon.mean": {
            "value": 0.10927800000000001,
            "min": 0.10927800000000001,
            "max": 0.1997429,
            "count": 182
        },
        "Saltador.Policy.Epsilon.sum": {
            "value": 0.54639,
            "min": 0.43901280000000004,
            "max": 0.9963873000000001,
            "count": 182
        },
        "Saltador.Policy.Beta.mean": {
            "value": 0.00047297220000000007,
            "min": 0.00047297220000000007,
            "max": 0.004987170710000001,
            "count": 182
        },
        "Saltador.Policy.Beta.sum": {
            "value": 0.0023648610000000002,
            "min": 0.00198673872,
            "max": 0.024819726270000002,
            "count": 182
        },
        "Saltador.IsTraining.mean": {
            "value": 1.0,
            "min": 1.0,
            "max": 1.0,
            "count": 182
        },
        "Saltador.IsTraining.sum": {
            "value": 1.0,
            "min": 1.0,
            "max": 1.0,
            "count": 182
        }
    },
    "metadata": {
        "timer_format_version": "0.1.0",
        "start_time_seconds": "1616000350",
        "python_version": "3.7.9 (tags/v3.7.9:13c94747c7, Aug 17 2020, 18:58:18) [MSC v.1900 64 bit (AMD64)]",
        "command_line_arguments": "D:\\Python37\\Scripts\\mlagents-learn newconfig.yaml --run-id saltadorAmbOcells3",
        "mlagents_version": "0.24.1",
        "mlagents_envs_version": "0.24.1",
        "communication_protocol_version": "1.4.0",
        "pytorch_version": "1.8.0+cpu",
        "numpy_version": "1.20.1",
        "end_time_seconds": "1616002622"
    },
    "total": 2271.2443894000003,
    "count": 1,
    "self": 0.06923649999998815,
    "children": {
        "run_training.setup": {
            "total": 0.16131169999999995,
            "count": 1,
            "self": 0.16131169999999995
        },
        "TrainerController.start_learning": {
            "total": 2271.0138412,
            "count": 1,
            "self": 4.88156550001122,
            "children": {
                "TrainerController._reset_env": {
                    "total": 4.0433181000000005,
                    "count": 1,
                    "self": 4.0433181000000005
                },
                "TrainerController.advance": {
                    "total": 2262.001938399989,
                    "count": 182551,
                    "self": 2.5804441999939627,
                    "children": {
                        "env_step": {
                            "total": 2259.421494199995,
                            "count": 182551,
                            "self": 1977.5426656999161,
                            "children": {
                                "SubprocessEnvManager._take_step": {
                                    "total": 279.38536540003787,
                                    "count": 182551,
                                    "self": 10.110312400064856,
                                    "children": {
                                        "TorchPolicy.evaluate": {
                                            "total": 269.275052999973,
                                            "count": 182028,
                                            "self": 73.95545530000169,
                                            "children": {
                                                "TorchPolicy.sample_actions": {
                                                    "total": 195.31959769997133,
                                                    "count": 182028,
                                                    "self": 195.31959769997133
                                                }
                                            }
                                        }
                                    }
                                },
                                "workers": {
                                    "total": 2.49346310004083,
                                    "count": 182550,
                                    "self": 0.0,
                                    "children": {
                                        "worker_root": {
                                            "total": 2261.145510099983,
                                            "count": 182550,
                                            "is_parallel": true,
                                            "self": 598.4221093999522,
                                            "children": {
                                                "steps_from_proto": {
                                                    "total": 0.0004593999999995546,
                                                    "count": 1,
                                                    "is_parallel": true,
                                                    "self": 0.0002460999999991387,
                                                    "children": {
                                                        "_process_vector_observation": {
                                                            "total": 0.00021330000000041593,
                                                            "count": 4,
                                                            "is_parallel": true,
                                                            "self": 0.00021330000000041593
                                                        }
                                                    }
                                                },
                                                "UnityEnvironment.step": {
                                                    "total": 1662.7229413000307,
                                                    "count": 182550,
                                                    "is_parallel": true,
                                                    "self": 24.52826630003642,
                                                    "children": {
                                                        "UnityEnvironment._generate_step_input": {
                                                            "total": 36.121548799992496,
                                                            "count": 182550,
                                                            "is_parallel": true,
                                                            "self": 36.121548799992496
                                                        },
                                                        "communicator.exchange": {
                                                            "total": 1518.030048000032,
                                                            "count": 182550,
                                                            "is_parallel": true,
                                                            "self": 1518.030048000032
                                                        },
                                                        "steps_from_proto": {
                                                            "total": 84.04307819996978,
                                                            "count": 182550,
                                                            "is_parallel": true,
                                                            "self": 37.14586379988579,
                                                            "children": {
                                                                "_process_vector_observation": {
                                                                    "total": 46.897214400083996,
                                                                    "count": 730200,
                                                                    "is_parallel": true,
                                                                    "self": 46.897214400083996
                                                                }
                                                            }
                                                        }
                                                    }
                                                }
                                            }
                                        }
                                    }
                                }
                            }
                        }
                    }
                },
                "trainer_threads": {
                    "total": 3.3600000278966036e-05,
                    "count": 1,
                    "self": 3.3600000278966036e-05,
                    "children": {
                        "thread_root": {
                            "total": 0.0,
                            "count": 0,
                            "is_parallel": true,
                            "self": 0.0,
                            "children": {
                                "trainer_advance": {
                                    "total": 2257.3242458000227,
                                    "count": 737469,
                                    "is_parallel": true,
                                    "self": 28.328997999999956,
                                    "children": {
                                        "process_trajectory": {
                                            "total": 1578.2735000000205,
                                            "count": 737469,
                                            "is_parallel": true,
                                            "self": 1577.9120284000205,
                                            "children": {
                                                "RLTrainer._checkpoint": {
                                                    "total": 0.3614716000000726,
                                                    "count": 3,
                                                    "is_parallel": true,
                                                    "self": 0.3614716000000726
                                                }
                                            }
                                        },
                                        "_update_policy": {
                                            "total": 650.7217478000023,
                                            "count": 862,
                                            "is_parallel": true,
                                            "self": 138.21386590000338,
                                            "children": {
                                                "TorchPPOOptimizer.update": {
                                                    "total": 512.5078818999989,
                                                    "count": 41517,
                                                    "is_parallel": true,
                                                    "self": 512.5078818999989
                                                }
                                            }
                                        }
                                    }
                                }
                            }
                        }
                    }
                },
                "TrainerController._save_models": {
                    "total": 0.0869855999999345,
                    "count": 1,
                    "self": 0.010577600000033271,
                    "children": {
                        "RLTrainer._checkpoint": {
                            "total": 0.07640799999990122,
                            "count": 1,
                            "self": 0.07640799999990122
                        }
                    }
                }
            }
        }
    }
}