%YAML 1.1
%TAG !u! tag:unity3d.com,2011:
--- !u!114 &11400000
MonoBehaviour:
  m_ObjectHideFlags: 0
  m_CorrespondingSourceObject: {fileID: 0}
  m_PrefabInstance: {fileID: 0}
  m_PrefabAsset: {fileID: 0}
  m_GameObject: {fileID: 0}
  m_Enabled: 1
  m_EditorHideFlags: 0
  m_Script: {fileID: 11500000, guid: e7679c22cbb3ab94fb54f7ebf23c26b0, type: 3}
  m_Name: Escopeta
  m_EditorClassIdentifier: 
  spd: 3
  bales: 1
  rechargeTime: 5
  scale: 0.6
  color: {r: 0.5283019, g: 0.26664296, b: 0.27112412, a: 1}
  balesEnUnSoloDisparo: 5
  dispersionAngle: 45
