%YAML 1.1
%TAG !u! tag:unity3d.com,2011:
--- !u!114 &11400000
MonoBehaviour:
  m_ObjectHideFlags: 0
  m_CorrespondingSourceObject: {fileID: 0}
  m_PrefabInstance: {fileID: 0}
  m_PrefabAsset: {fileID: 0}
  m_GameObject: {fileID: 0}
  m_Enabled: 1
  m_EditorHideFlags: 0
  m_Script: {fileID: 11500000, guid: b7f37367419b84e4ea439c6e431c04bc, type: 3}
  m_Name: QuestLog
  m_EditorClassIdentifier: 
  quests:
  - {fileID: 11400000, guid: 173fe95b5f8720947a4131775a209436, type: 2}
