%YAML 1.1
%TAG !u! tag:unity3d.com,2011:
--- !u!114 &11400000
MonoBehaviour:
  m_ObjectHideFlags: 0
  m_CorrespondingSourceObject: {fileID: 0}
  m_PrefabInstance: {fileID: 0}
  m_PrefabAsset: {fileID: 0}
  m_GameObject: {fileID: 0}
  m_Enabled: 1
  m_EditorHideFlags: 0
  m_Script: {fileID: 11500000, guid: e682882e60ce36747886985c7eb420c6, type: 3}
  m_Name: SergiQuestGiver
  m_EditorClassIdentifier: 
  questid: 1
  textAccepted: Dame mis furros
  textCompleted: Gracias por darme los furros. Voy a hacer cosas con ellos. Aqui
    tienes tu recompensa
  textDelivered: "\xBFQue que hice con los furros? No preguntes. Soy ruso"
