%YAML 1.1
%TAG !u! tag:unity3d.com,2011:
--- !u!114 &11400000
MonoBehaviour:
  m_ObjectHideFlags: 0
  m_CorrespondingSourceObject: {fileID: 0}
  m_PrefabInstance: {fileID: 0}
  m_PrefabAsset: {fileID: 0}
  m_GameObject: {fileID: 0}
  m_Enabled: 1
  m_EditorHideFlags: 0
  m_Script: {fileID: 11500000, guid: 934a125e7fe00a640a4e44e4f788b500, type: 3}
  m_Name: AlumneMedina
  m_EditorClassIdentifier: 
  nom: Joan
  foto: {fileID: 21300000, guid: b3a81c56e1f76a244ad6da1ea6b35696, type: 3}
  notaFinal: 5
