%YAML 1.1
%TAG !u! tag:unity3d.com,2011:
--- !u!114 &11400000
MonoBehaviour:
  m_ObjectHideFlags: 0
  m_CorrespondingSourceObject: {fileID: 0}
  m_PrefabInstance: {fileID: 0}
  m_PrefabAsset: {fileID: 0}
  m_GameObject: {fileID: 0}
  m_Enabled: 1
  m_EditorHideFlags: 0
  m_Script: {fileID: 11500000, guid: bde47ed8b4da00e4c97515b96637f750, type: 3}
  m_Name: PB
  m_EditorClassIdentifier: 
  spd: 4
  cd: 0.5
  scale: 0.5
  color: {r: 0, g: 0.04290104, b: 1, a: 1}
