%YAML 1.1
%TAG !u! tag:unity3d.com,2011:
--- !u!1001 &750035434245230439
PrefabInstance:
  m_ObjectHideFlags: 0
  serializedVersion: 2
  m_Modification:
    m_TransformParent: {fileID: 0}
    m_Modifications:
    - target: {fileID: 1193291413562903836, guid: eab804c1159087a49ad305b04fa743bf,
        type: 3}
      propertyPath: m_Name
      value: covid
      objectReference: {fileID: 0}
    - target: {fileID: 1193291413562903838, guid: eab804c1159087a49ad305b04fa743bf,
        type: 3}
      propertyPath: m_RootOrder
      value: 0
      objectReference: {fileID: 0}
    - target: {fileID: 1193291413562903838, guid: eab804c1159087a49ad305b04fa743bf,
        type: 3}
      propertyPath: m_LocalScale.x
      value: 0.5
      objectReference: {fileID: 0}
    - target: {fileID: 1193291413562903838, guid: eab804c1159087a49ad305b04fa743bf,
        type: 3}
      propertyPath: m_LocalScale.y
      value: 0.5
      objectReference: {fileID: 0}
    - target: {fileID: 1193291413562903838, guid: eab804c1159087a49ad305b04fa743bf,
        type: 3}
      propertyPath: m_LocalPosition.x
      value: -12.763199
      objectReference: {fileID: 0}
    - target: {fileID: 1193291413562903838, guid: eab804c1159087a49ad305b04fa743bf,
        type: 3}
      propertyPath: m_LocalPosition.y
      value: -2.4327855
      objectReference: {fileID: 0}
    - target: {fileID: 1193291413562903838, guid: eab804c1159087a49ad305b04fa743bf,
        type: 3}
      propertyPath: m_LocalPosition.z
      value: 0
      objectReference: {fileID: 0}
    - target: {fileID: 1193291413562903838, guid: eab804c1159087a49ad305b04fa743bf,
        type: 3}
      propertyPath: m_LocalRotation.w
      value: 1
      objectReference: {fileID: 0}
    - target: {fileID: 1193291413562903838, guid: eab804c1159087a49ad305b04fa743bf,
        type: 3}
      propertyPath: m_LocalRotation.x
      value: 0
      objectReference: {fileID: 0}
    - target: {fileID: 1193291413562903838, guid: eab804c1159087a49ad305b04fa743bf,
        type: 3}
      propertyPath: m_LocalRotation.y
      value: 0
      objectReference: {fileID: 0}
    - target: {fileID: 1193291413562903838, guid: eab804c1159087a49ad305b04fa743bf,
        type: 3}
      propertyPath: m_LocalRotation.z
      value: 0
      objectReference: {fileID: 0}
    - target: {fileID: 1193291413562903838, guid: eab804c1159087a49ad305b04fa743bf,
        type: 3}
      propertyPath: m_LocalEulerAnglesHint.x
      value: 0
      objectReference: {fileID: 0}
    - target: {fileID: 1193291413562903838, guid: eab804c1159087a49ad305b04fa743bf,
        type: 3}
      propertyPath: m_LocalEulerAnglesHint.y
      value: 0
      objectReference: {fileID: 0}
    - target: {fileID: 1193291413562903838, guid: eab804c1159087a49ad305b04fa743bf,
        type: 3}
      propertyPath: m_LocalEulerAnglesHint.z
      value: 0
      objectReference: {fileID: 0}
    - target: {fileID: 1193291413562903839, guid: eab804c1159087a49ad305b04fa743bf,
        type: 3}
      propertyPath: m_Color.b
      value: 0.8962264
      objectReference: {fileID: 0}
    - target: {fileID: 1193291413562903839, guid: eab804c1159087a49ad305b04fa743bf,
        type: 3}
      propertyPath: m_Color.g
      value: 0.8044974
      objectReference: {fileID: 0}
    - target: {fileID: 1193291413562903839, guid: eab804c1159087a49ad305b04fa743bf,
        type: 3}
      propertyPath: m_Color.r
      value: 0.2739409
      objectReference: {fileID: 0}
    m_RemovedComponents: []
  m_SourcePrefab: {fileID: 100100000, guid: eab804c1159087a49ad305b04fa743bf, type: 3}
