%YAML 1.1
%TAG !u! tag:unity3d.com,2011:
--- !u!1 &1522717136338805002
GameObject:
  m_ObjectHideFlags: 0
  m_CorrespondingSourceObject: {fileID: 0}
  m_PrefabInstance: {fileID: 0}
  m_PrefabAsset: {fileID: 0}
  serializedVersion: 6
  m_Component:
  - component: {fileID: 3750767040499426759}
  - component: {fileID: 2825355639841738657}
  - component: {fileID: 8290449178863635489}
  m_Layer: 31
  m_Name: Layer1
  m_TagString: Untagged
  m_Icon: {fileID: 0}
  m_NavMeshLayer: 0
  m_StaticEditorFlags: 0
  m_IsActive: 1
--- !u!4 &3750767040499426759
Transform:
  m_ObjectHideFlags: 0
  m_CorrespondingSourceObject: {fileID: 0}
  m_PrefabInstance: {fileID: 0}
  m_PrefabAsset: {fileID: 0}
  m_GameObject: {fileID: 1522717136338805002}
  m_LocalRotation: {x: -0, y: -0, z: -0, w: 1}
  m_LocalPosition: {x: 0, y: 0, z: 0}
  m_LocalScale: {x: 1, y: 1, z: 1}
  m_Children: []
  m_Father: {fileID: 3325490175236293567}
  m_RootOrder: 0
  m_LocalEulerAnglesHint: {x: 0, y: 0, z: 0}
--- !u!1839735485 &2825355639841738657
Tilemap:
  m_ObjectHideFlags: 0
  m_CorrespondingSourceObject: {fileID: 0}
  m_PrefabInstance: {fileID: 0}
  m_PrefabAsset: {fileID: 0}
  m_GameObject: {fileID: 1522717136338805002}
  m_Enabled: 1
  m_Tiles:
  - first: {x: 11, y: -24, z: 0}
    second:
      m_TileIndex: 15
      m_TileSpriteIndex: 45
      m_TileMatrixIndex: 1
      m_TileColorIndex: 0
      m_ObjectToInstantiate: {fileID: 0}
      m_TileFlags: 2
      m_ColliderType: 1
  - first: {x: 12, y: -24, z: 0}
    second:
      m_TileIndex: 15
      m_TileSpriteIndex: 45
      m_TileMatrixIndex: 0
      m_TileColorIndex: 0
      m_ObjectToInstantiate: {fileID: 0}
      m_TileFlags: 2
      m_ColliderType: 1
  - first: {x: 13, y: -24, z: 0}
    second:
      m_TileIndex: 15
      m_TileSpriteIndex: 45
      m_TileMatrixIndex: 0
      m_TileColorIndex: 0
      m_ObjectToInstantiate: {fileID: 0}
      m_TileFlags: 2
      m_ColliderType: 1
  - first: {x: 11, y: -23, z: 0}
    second:
      m_TileIndex: 15
      m_TileSpriteIndex: 45
      m_TileMatrixIndex: 0
      m_TileColorIndex: 0
      m_ObjectToInstantiate: {fileID: 0}
      m_TileFlags: 2
      m_ColliderType: 1
  - first: {x: 12, y: -23, z: 0}
    second:
      m_TileIndex: 15
      m_TileSpriteIndex: 47
      m_TileMatrixIndex: 0
      m_TileColorIndex: 0
      m_ObjectToInstantiate: {fileID: 0}
      m_TileFlags: 2
      m_ColliderType: 1
  - first: {x: 13, y: -23, z: 0}
    second:
      m_TileIndex: 15
      m_TileSpriteIndex: 47
      m_TileMatrixIndex: 0
      m_TileColorIndex: 0
      m_ObjectToInstantiate: {fileID: 0}
      m_TileFlags: 2
      m_ColliderType: 1
  - first: {x: -16, y: -22, z: 0}
    second:
      m_TileIndex: 35
      m_TileSpriteIndex: 63
      m_TileMatrixIndex: 0
      m_TileColorIndex: 0
      m_ObjectToInstantiate: {fileID: 0}
      m_TileFlags: 1
      m_ColliderType: 1
  - first: {x: -15, y: -22, z: 0}
    second:
      m_TileIndex: 36
      m_TileSpriteIndex: 64
      m_TileMatrixIndex: 0
      m_TileColorIndex: 0
      m_ObjectToInstantiate: {fileID: 0}
      m_TileFlags: 1
      m_ColliderType: 1
  - first: {x: -14, y: -22, z: 0}
    second:
      m_TileIndex: 37
      m_TileSpriteIndex: 65
      m_TileMatrixIndex: 0
      m_TileColorIndex: 0
      m_ObjectToInstantiate: {fileID: 0}
      m_TileFlags: 1
      m_ColliderType: 1
  - first: {x: 11, y: -22, z: 0}
    second:
      m_TileIndex: 15
      m_TileSpriteIndex: 19
      m_TileMatrixIndex: 1
      m_TileColorIndex: 0
      m_ObjectToInstantiate: {fileID: 0}
      m_TileFlags: 2
      m_ColliderType: 1
  - first: {x: 12, y: -22, z: 0}
    second:
      m_TileIndex: 15
      m_TileSpriteIndex: 47
      m_TileMatrixIndex: 1
      m_TileColorIndex: 0
      m_ObjectToInstantiate: {fileID: 0}
      m_TileFlags: 2
      m_ColliderType: 1
  - first: {x: 13, y: -22, z: 0}
    second:
      m_TileIndex: 15
      m_TileSpriteIndex: 46
      m_TileMatrixIndex: 0
      m_TileColorIndex: 0
      m_ObjectToInstantiate: {fileID: 0}
      m_TileFlags: 2
      m_ColliderType: 1
  - first: {x: -16, y: -21, z: 0}
    second:
      m_TileIndex: 31
      m_TileSpriteIndex: 59
      m_TileMatrixIndex: 0
      m_TileColorIndex: 0
      m_ObjectToInstantiate: {fileID: 0}
      m_TileFlags: 1
      m_ColliderType: 1
  - first: {x: -15, y: -21, z: 0}
    second:
      m_TileIndex: 32
      m_TileSpriteIndex: 60
      m_TileMatrixIndex: 0
      m_TileColorIndex: 0
      m_ObjectToInstantiate: {fileID: 0}
      m_TileFlags: 1
      m_ColliderType: 1
  - first: {x: -14, y: -21, z: 0}
    second:
      m_TileIndex: 33
      m_TileSpriteIndex: 61
      m_TileMatrixIndex: 0
      m_TileColorIndex: 0
      m_ObjectToInstantiate: {fileID: 0}
      m_TileFlags: 1
      m_ColliderType: 1
  - first: {x: -13, y: -21, z: 0}
    second:
      m_TileIndex: 34
      m_TileSpriteIndex: 62
      m_TileMatrixIndex: 0
      m_TileColorIndex: 0
      m_ObjectToInstantiate: {fileID: 0}
      m_TileFlags: 1
      m_ColliderType: 1
  - first: {x: -16, y: -20, z: 0}
    second:
      m_TileIndex: 27
      m_TileSpriteIndex: 55
      m_TileMatrixIndex: 0
      m_TileColorIndex: 0
      m_ObjectToInstantiate: {fileID: 0}
      m_TileFlags: 1
      m_ColliderType: 1
  - first: {x: -15, y: -20, z: 0}
    second:
      m_TileIndex: 28
      m_TileSpriteIndex: 56
      m_TileMatrixIndex: 0
      m_TileColorIndex: 0
      m_ObjectToInstantiate: {fileID: 0}
      m_TileFlags: 1
      m_ColliderType: 1
  - first: {x: -14, y: -20, z: 0}
    second:
      m_TileIndex: 29
      m_TileSpriteIndex: 57
      m_TileMatrixIndex: 0
      m_TileColorIndex: 0
      m_ObjectToInstantiate: {fileID: 0}
      m_TileFlags: 1
      m_ColliderType: 1
  - first: {x: -13, y: -20, z: 0}
    second:
      m_TileIndex: 30
      m_TileSpriteIndex: 58
      m_TileMatrixIndex: 0
      m_TileColorIndex: 0
      m_ObjectToInstantiate: {fileID: 0}
      m_TileFlags: 1
      m_ColliderType: 1
  - first: {x: 7, y: -20, z: 0}
    second:
      m_TileIndex: 13
      m_TileSpriteIndex: 43
      m_TileMatrixIndex: 0
      m_TileColorIndex: 0
      m_ObjectToInstantiate: {fileID: 0}
      m_TileFlags: 2
      m_ColliderType: 1
  - first: {x: 8, y: -20, z: 0}
    second:
      m_TileIndex: 13
      m_TileSpriteIndex: 40
      m_TileMatrixIndex: 1
      m_TileColorIndex: 0
      m_ObjectToInstantiate: {fileID: 0}
      m_TileFlags: 2
      m_ColliderType: 1
  - first: {x: 9, y: -20, z: 0}
    second:
      m_TileIndex: 13
      m_TileSpriteIndex: 43
      m_TileMatrixIndex: 0
      m_TileColorIndex: 0
      m_ObjectToInstantiate: {fileID: 0}
      m_TileFlags: 2
      m_ColliderType: 1
  - first: {x: 11, y: -20, z: 0}
    second:
      m_TileIndex: 14
      m_TileSpriteIndex: 17
      m_TileMatrixIndex: 0
      m_TileColorIndex: 0
      m_ObjectToInstantiate: {fileID: 0}
      m_TileFlags: 2
      m_ColliderType: 1
  - first: {x: 12, y: -20, z: 0}
    second:
      m_TileIndex: 14
      m_TileSpriteIndex: 17
      m_TileMatrixIndex: 0
      m_TileColorIndex: 0
      m_ObjectToInstantiate: {fileID: 0}
      m_TileFlags: 2
      m_ColliderType: 1
  - first: {x: 13, y: -20, z: 0}
    second:
      m_TileIndex: 14
      m_TileSpriteIndex: 44
      m_TileMatrixIndex: 0
      m_TileColorIndex: 0
      m_ObjectToInstantiate: {fileID: 0}
      m_TileFlags: 2
      m_ColliderType: 1
  - first: {x: -16, y: -19, z: 0}
    second:
      m_TileIndex: 23
      m_TileSpriteIndex: 51
      m_TileMatrixIndex: 0
      m_TileColorIndex: 0
      m_ObjectToInstantiate: {fileID: 0}
      m_TileFlags: 1
      m_ColliderType: 1
  - first: {x: -15, y: -19, z: 0}
    second:
      m_TileIndex: 24
      m_TileSpriteIndex: 52
      m_TileMatrixIndex: 0
      m_TileColorIndex: 0
      m_ObjectToInstantiate: {fileID: 0}
      m_TileFlags: 1
      m_ColliderType: 1
  - first: {x: -14, y: -19, z: 0}
    second:
      m_TileIndex: 25
      m_TileSpriteIndex: 53
      m_TileMatrixIndex: 0
      m_TileColorIndex: 0
      m_ObjectToInstantiate: {fileID: 0}
      m_TileFlags: 1
      m_ColliderType: 1
  - first: {x: -13, y: -19, z: 0}
    second:
      m_TileIndex: 26
      m_TileSpriteIndex: 54
      m_TileMatrixIndex: 0
      m_TileColorIndex: 0
      m_ObjectToInstantiate: {fileID: 0}
      m_TileFlags: 1
      m_ColliderType: 1
  - first: {x: 7, y: -19, z: 0}
    second:
      m_TileIndex: 13
      m_TileSpriteIndex: 40
      m_TileMatrixIndex: 0
      m_TileColorIndex: 0
      m_ObjectToInstantiate: {fileID: 0}
      m_TileFlags: 2
      m_ColliderType: 1
  - first: {x: 8, y: -19, z: 0}
    second:
      m_TileIndex: 13
      m_TileSpriteIndex: 43
      m_TileMatrixIndex: 1
      m_TileColorIndex: 0
      m_ObjectToInstantiate: {fileID: 0}
      m_TileFlags: 2
      m_ColliderType: 1
  - first: {x: 9, y: -19, z: 0}
    second:
      m_TileIndex: 13
      m_TileSpriteIndex: 40
      m_TileMatrixIndex: 1
      m_TileColorIndex: 0
      m_ObjectToInstantiate: {fileID: 0}
      m_TileFlags: 2
      m_ColliderType: 1
  - first: {x: 11, y: -19, z: 0}
    second:
      m_TileIndex: 14
      m_TileSpriteIndex: 44
      m_TileMatrixIndex: 1
      m_TileColorIndex: 0
      m_ObjectToInstantiate: {fileID: 0}
      m_TileFlags: 2
      m_ColliderType: 1
  - first: {x: 12, y: -19, z: 0}
    second:
      m_TileIndex: 14
      m_TileSpriteIndex: 44
      m_TileMatrixIndex: 0
      m_TileColorIndex: 0
      m_ObjectToInstantiate: {fileID: 0}
      m_TileFlags: 2
      m_ColliderType: 1
  - first: {x: 13, y: -19, z: 0}
    second:
      m_TileIndex: 14
      m_TileSpriteIndex: 17
      m_TileMatrixIndex: 0
      m_TileColorIndex: 0
      m_ObjectToInstantiate: {fileID: 0}
      m_TileFlags: 2
      m_ColliderType: 1
  - first: {x: -4, y: -18, z: 0}
    second:
      m_TileIndex: 9
      m_TileSpriteIndex: 36
      m_TileMatrixIndex: 0
      m_TileColorIndex: 0
      m_ObjectToInstantiate: {fileID: 0}
      m_TileFlags: 2
      m_ColliderType: 1
  - first: {x: -3, y: -18, z: 0}
    second:
      m_TileIndex: 9
      m_TileSpriteIndex: 30
      m_TileMatrixIndex: 0
      m_TileColorIndex: 0
      m_ObjectToInstantiate: {fileID: 0}
      m_TileFlags: 2
      m_ColliderType: 1
  - first: {x: -2, y: -18, z: 0}
    second:
      m_TileIndex: 9
      m_TileSpriteIndex: 30
      m_TileMatrixIndex: 0
      m_TileColorIndex: 0
      m_ObjectToInstantiate: {fileID: 0}
      m_TileFlags: 2
      m_ColliderType: 1
  - first: {x: 0, y: -18, z: 0}
    second:
      m_TileIndex: 10
      m_TileSpriteIndex: 32
      m_TileMatrixIndex: 1
      m_TileColorIndex: 0
      m_ObjectToInstantiate: {fileID: 0}
      m_TileFlags: 2
      m_ColliderType: 1
  - first: {x: 1, y: -18, z: 0}
    second:
      m_TileIndex: 10
      m_TileSpriteIndex: 32
      m_TileMatrixIndex: 1
      m_TileColorIndex: 0
      m_ObjectToInstantiate: {fileID: 0}
      m_TileFlags: 2
      m_ColliderType: 1
  - first: {x: 2, y: -18, z: 0}
    second:
      m_TileIndex: 10
      m_TileSpriteIndex: 32
      m_TileMatrixIndex: 1
      m_TileColorIndex: 0
      m_ObjectToInstantiate: {fileID: 0}
      m_TileFlags: 2
      m_ColliderType: 1
  - first: {x: 7, y: -18, z: 0}
    second:
      m_TileIndex: 13
      m_TileSpriteIndex: 40
      m_TileMatrixIndex: 0
      m_TileColorIndex: 0
      m_ObjectToInstantiate: {fileID: 0}
      m_TileFlags: 2
      m_ColliderType: 1
  - first: {x: 8, y: -18, z: 0}
    second:
      m_TileIndex: 13
      m_TileSpriteIndex: 40
      m_TileMatrixIndex: 1
      m_TileColorIndex: 0
      m_ObjectToInstantiate: {fileID: 0}
      m_TileFlags: 2
      m_ColliderType: 1
  - first: {x: 9, y: -18, z: 0}
    second:
      m_TileIndex: 13
      m_TileSpriteIndex: 40
      m_TileMatrixIndex: 1
      m_TileColorIndex: 0
      m_ObjectToInstantiate: {fileID: 0}
      m_TileFlags: 2
      m_ColliderType: 1
  - first: {x: 11, y: -18, z: 0}
    second:
      m_TileIndex: 14
      m_TileSpriteIndex: 18
      m_TileMatrixIndex: 0
      m_TileColorIndex: 0
      m_ObjectToInstantiate: {fileID: 0}
      m_TileFlags: 2
      m_ColliderType: 1
  - first: {x: 12, y: -18, z: 0}
    second:
      m_TileIndex: 14
      m_TileSpriteIndex: 18
      m_TileMatrixIndex: 0
      m_TileColorIndex: 0
      m_ObjectToInstantiate: {fileID: 0}
      m_TileFlags: 2
      m_ColliderType: 1
  - first: {x: 13, y: -18, z: 0}
    second:
      m_TileIndex: 14
      m_TileSpriteIndex: 44
      m_TileMatrixIndex: 0
      m_TileColorIndex: 0
      m_ObjectToInstantiate: {fileID: 0}
      m_TileFlags: 2
      m_ColliderType: 1
  - first: {x: -4, y: -17, z: 0}
    second:
      m_TileIndex: 9
      m_TileSpriteIndex: 36
      m_TileMatrixIndex: 0
      m_TileColorIndex: 0
      m_ObjectToInstantiate: {fileID: 0}
      m_TileFlags: 2
      m_ColliderType: 1
  - first: {x: -3, y: -17, z: 0}
    second:
      m_TileIndex: 9
      m_TileSpriteIndex: 36
      m_TileMatrixIndex: 0
      m_TileColorIndex: 0
      m_ObjectToInstantiate: {fileID: 0}
      m_TileFlags: 2
      m_ColliderType: 1
  - first: {x: -2, y: -17, z: 0}
    second:
      m_TileIndex: 9
      m_TileSpriteIndex: 36
      m_TileMatrixIndex: 0
      m_TileColorIndex: 0
      m_ObjectToInstantiate: {fileID: 0}
      m_TileFlags: 2
      m_ColliderType: 1
  - first: {x: 0, y: -17, z: 0}
    second:
      m_TileIndex: 10
      m_TileSpriteIndex: 33
      m_TileMatrixIndex: 0
      m_TileColorIndex: 0
      m_ObjectToInstantiate: {fileID: 0}
      m_TileFlags: 2
      m_ColliderType: 1
  - first: {x: 1, y: -17, z: 0}
    second:
      m_TileIndex: 10
      m_TileSpriteIndex: 33
      m_TileMatrixIndex: 1
      m_TileColorIndex: 0
      m_ObjectToInstantiate: {fileID: 0}
      m_TileFlags: 2
      m_ColliderType: 1
  - first: {x: 2, y: -17, z: 0}
    second:
      m_TileIndex: 10
      m_TileSpriteIndex: 32
      m_TileMatrixIndex: 0
      m_TileColorIndex: 0
      m_ObjectToInstantiate: {fileID: 0}
      m_TileFlags: 2
      m_ColliderType: 1
  - first: {x: -8, y: -16, z: 0}
    second:
      m_TileIndex: 23
      m_TileSpriteIndex: 51
      m_TileMatrixIndex: 0
      m_TileColorIndex: 0
      m_ObjectToInstantiate: {fileID: 0}
      m_TileFlags: 1
      m_ColliderType: 1
  - first: {x: -4, y: -16, z: 0}
    second:
      m_TileIndex: 9
      m_TileSpriteIndex: 36
      m_TileMatrixIndex: 0
      m_TileColorIndex: 0
      m_ObjectToInstantiate: {fileID: 0}
      m_TileFlags: 2
      m_ColliderType: 1
  - first: {x: -3, y: -16, z: 0}
    second:
      m_TileIndex: 9
      m_TileSpriteIndex: 30
      m_TileMatrixIndex: 0
      m_TileColorIndex: 0
      m_ObjectToInstantiate: {fileID: 0}
      m_TileFlags: 2
      m_ColliderType: 1
  - first: {x: -2, y: -16, z: 0}
    second:
      m_TileIndex: 9
      m_TileSpriteIndex: 30
      m_TileMatrixIndex: 0
      m_TileColorIndex: 0
      m_ObjectToInstantiate: {fileID: 0}
      m_TileFlags: 2
      m_ColliderType: 1
  - first: {x: 0, y: -16, z: 0}
    second:
      m_TileIndex: 10
      m_TileSpriteIndex: 33
      m_TileMatrixIndex: 1
      m_TileColorIndex: 0
      m_ObjectToInstantiate: {fileID: 0}
      m_TileFlags: 2
      m_ColliderType: 1
  - first: {x: 1, y: -16, z: 0}
    second:
      m_TileIndex: 10
      m_TileSpriteIndex: 32
      m_TileMatrixIndex: 1
      m_TileColorIndex: 0
      m_ObjectToInstantiate: {fileID: 0}
      m_TileFlags: 2
      m_ColliderType: 1
  - first: {x: 2, y: -16, z: 0}
    second:
      m_TileIndex: 10
      m_TileSpriteIndex: 32
      m_TileMatrixIndex: 1
      m_TileColorIndex: 0
      m_ObjectToInstantiate: {fileID: 0}
      m_TileFlags: 2
      m_ColliderType: 1
  - first: {x: -8, y: -15, z: 0}
    second:
      m_TileIndex: 25
      m_TileSpriteIndex: 53
      m_TileMatrixIndex: 0
      m_TileColorIndex: 0
      m_ObjectToInstantiate: {fileID: 0}
      m_TileFlags: 1
      m_ColliderType: 1
  - first: {x: -10, y: -14, z: 0}
    second:
      m_TileIndex: 24
      m_TileSpriteIndex: 52
      m_TileMatrixIndex: 0
      m_TileColorIndex: 0
      m_ObjectToInstantiate: {fileID: 0}
      m_TileFlags: 1
      m_ColliderType: 1
  - first: {x: -4, y: -14, z: 0}
    second:
      m_TileIndex: 11
      m_TileSpriteIndex: 16
      m_TileMatrixIndex: 0
      m_TileColorIndex: 0
      m_ObjectToInstantiate: {fileID: 0}
      m_TileFlags: 2
      m_ColliderType: 1
  - first: {x: -3, y: -14, z: 0}
    second:
      m_TileIndex: 11
      m_TileSpriteIndex: 16
      m_TileMatrixIndex: 1
      m_TileColorIndex: 0
      m_ObjectToInstantiate: {fileID: 0}
      m_TileFlags: 2
      m_ColliderType: 1
  - first: {x: -2, y: -14, z: 0}
    second:
      m_TileIndex: 11
      m_TileSpriteIndex: 16
      m_TileMatrixIndex: 0
      m_TileColorIndex: 0
      m_ObjectToInstantiate: {fileID: 0}
      m_TileFlags: 2
      m_ColliderType: 1
  - first: {x: 0, y: -14, z: 0}
    second:
      m_TileIndex: 12
      m_TileSpriteIndex: 37
      m_TileMatrixIndex: 0
      m_TileColorIndex: 0
      m_ObjectToInstantiate: {fileID: 0}
      m_TileFlags: 2
      m_ColliderType: 1
  - first: {x: 1, y: -14, z: 0}
    second:
      m_TileIndex: 12
      m_TileSpriteIndex: 38
      m_TileMatrixIndex: 0
      m_TileColorIndex: 0
      m_ObjectToInstantiate: {fileID: 0}
      m_TileFlags: 2
      m_ColliderType: 1
  - first: {x: 2, y: -14, z: 0}
    second:
      m_TileIndex: 12
      m_TileSpriteIndex: 37
      m_TileMatrixIndex: 0
      m_TileColorIndex: 0
      m_ObjectToInstantiate: {fileID: 0}
      m_TileFlags: 2
      m_ColliderType: 1
  - first: {x: -4, y: -13, z: 0}
    second:
      m_TileIndex: 11
      m_TileSpriteIndex: 42
      m_TileMatrixIndex: 1
      m_TileColorIndex: 0
      m_ObjectToInstantiate: {fileID: 0}
      m_TileFlags: 2
      m_ColliderType: 1
  - first: {x: -3, y: -13, z: 0}
    second:
      m_TileIndex: 11
      m_TileSpriteIndex: 16
      m_TileMatrixIndex: 1
      m_TileColorIndex: 0
      m_ObjectToInstantiate: {fileID: 0}
      m_TileFlags: 2
      m_ColliderType: 1
  - first: {x: -2, y: -13, z: 0}
    second:
      m_TileIndex: 11
      m_TileSpriteIndex: 16
      m_TileMatrixIndex: 0
      m_TileColorIndex: 0
      m_ObjectToInstantiate: {fileID: 0}
      m_TileFlags: 2
      m_ColliderType: 1
  - first: {x: 0, y: -13, z: 0}
    second:
      m_TileIndex: 12
      m_TileSpriteIndex: 38
      m_TileMatrixIndex: 0
      m_TileColorIndex: 0
      m_ObjectToInstantiate: {fileID: 0}
      m_TileFlags: 2
      m_ColliderType: 1
  - first: {x: 1, y: -13, z: 0}
    second:
      m_TileIndex: 12
      m_TileSpriteIndex: 37
      m_TileMatrixIndex: 0
      m_TileColorIndex: 0
      m_ObjectToInstantiate: {fileID: 0}
      m_TileFlags: 2
      m_ColliderType: 1
  - first: {x: 2, y: -13, z: 0}
    second:
      m_TileIndex: 12
      m_TileSpriteIndex: 37
      m_TileMatrixIndex: 0
      m_TileColorIndex: 0
      m_ObjectToInstantiate: {fileID: 0}
      m_TileFlags: 2
      m_ColliderType: 1
  - first: {x: 7, y: -13, z: 0}
    second:
      m_TileIndex: 8
      m_TileSpriteIndex: 27
      m_TileMatrixIndex: 1
      m_TileColorIndex: 0
      m_ObjectToInstantiate: {fileID: 0}
      m_TileFlags: 2
      m_ColliderType: 1
  - first: {x: 8, y: -13, z: 0}
    second:
      m_TileIndex: 8
      m_TileSpriteIndex: 27
      m_TileMatrixIndex: 1
      m_TileColorIndex: 0
      m_ObjectToInstantiate: {fileID: 0}
      m_TileFlags: 2
      m_ColliderType: 1
  - first: {x: 9, y: -13, z: 0}
    second:
      m_TileIndex: 8
      m_TileSpriteIndex: 41
      m_TileMatrixIndex: 0
      m_TileColorIndex: 0
      m_ObjectToInstantiate: {fileID: 0}
      m_TileFlags: 2
      m_ColliderType: 1
  - first: {x: 11, y: -13, z: 0}
    second:
      m_TileIndex: 7
      m_TileSpriteIndex: 25
      m_TileMatrixIndex: 0
      m_TileColorIndex: 0
      m_ObjectToInstantiate: {fileID: 0}
      m_TileFlags: 2
      m_ColliderType: 1
  - first: {x: 12, y: -13, z: 0}
    second:
      m_TileIndex: 7
      m_TileSpriteIndex: 24
      m_TileMatrixIndex: 0
      m_TileColorIndex: 0
      m_ObjectToInstantiate: {fileID: 0}
      m_TileFlags: 2
      m_ColliderType: 1
  - first: {x: 13, y: -13, z: 0}
    second:
      m_TileIndex: 7
      m_TileSpriteIndex: 24
      m_TileMatrixIndex: 1
      m_TileColorIndex: 0
      m_ObjectToInstantiate: {fileID: 0}
      m_TileFlags: 2
      m_ColliderType: 1
  - first: {x: -4, y: -12, z: 0}
    second:
      m_TileIndex: 11
      m_TileSpriteIndex: 16
      m_TileMatrixIndex: 0
      m_TileColorIndex: 0
      m_ObjectToInstantiate: {fileID: 0}
      m_TileFlags: 2
      m_ColliderType: 1
  - first: {x: -3, y: -12, z: 0}
    second:
      m_TileIndex: 11
      m_TileSpriteIndex: 39
      m_TileMatrixIndex: 0
      m_TileColorIndex: 0
      m_ObjectToInstantiate: {fileID: 0}
      m_TileFlags: 2
      m_ColliderType: 1
  - first: {x: -2, y: -12, z: 0}
    second:
      m_TileIndex: 11
      m_TileSpriteIndex: 16
      m_TileMatrixIndex: 0
      m_TileColorIndex: 0
      m_ObjectToInstantiate: {fileID: 0}
      m_TileFlags: 2
      m_ColliderType: 1
  - first: {x: 0, y: -12, z: 0}
    second:
      m_TileIndex: 12
      m_TileSpriteIndex: 37
      m_TileMatrixIndex: 0
      m_TileColorIndex: 0
      m_ObjectToInstantiate: {fileID: 0}
      m_TileFlags: 2
      m_ColliderType: 1
  - first: {x: 1, y: -12, z: 0}
    second:
      m_TileIndex: 12
      m_TileSpriteIndex: 37
      m_TileMatrixIndex: 0
      m_TileColorIndex: 0
      m_ObjectToInstantiate: {fileID: 0}
      m_TileFlags: 2
      m_ColliderType: 1
  - first: {x: 2, y: -12, z: 0}
    second:
      m_TileIndex: 12
      m_TileSpriteIndex: 37
      m_TileMatrixIndex: 0
      m_TileColorIndex: 0
      m_ObjectToInstantiate: {fileID: 0}
      m_TileFlags: 2
      m_ColliderType: 1
  - first: {x: 7, y: -12, z: 0}
    second:
      m_TileIndex: 8
      m_TileSpriteIndex: 21
      m_TileMatrixIndex: 1
      m_TileColorIndex: 0
      m_ObjectToInstantiate: {fileID: 0}
      m_TileFlags: 2
      m_ColliderType: 1
  - first: {x: 8, y: -12, z: 0}
    second:
      m_TileIndex: 8
      m_TileSpriteIndex: 21
      m_TileMatrixIndex: 0
      m_TileColorIndex: 0
      m_ObjectToInstantiate: {fileID: 0}
      m_TileFlags: 2
      m_ColliderType: 1
  - first: {x: 9, y: -12, z: 0}
    second:
      m_TileIndex: 8
      m_TileSpriteIndex: 27
      m_TileMatrixIndex: 0
      m_TileColorIndex: 0
      m_ObjectToInstantiate: {fileID: 0}
      m_TileFlags: 2
      m_ColliderType: 1
  - first: {x: 11, y: -12, z: 0}
    second:
      m_TileIndex: 7
      m_TileSpriteIndex: 20
      m_TileMatrixIndex: 1
      m_TileColorIndex: 0
      m_ObjectToInstantiate: {fileID: 0}
      m_TileFlags: 2
      m_ColliderType: 1
  - first: {x: 12, y: -12, z: 0}
    second:
      m_TileIndex: 7
      m_TileSpriteIndex: 25
      m_TileMatrixIndex: 0
      m_TileColorIndex: 0
      m_ObjectToInstantiate: {fileID: 0}
      m_TileFlags: 2
      m_ColliderType: 1
  - first: {x: 13, y: -12, z: 0}
    second:
      m_TileIndex: 7
      m_TileSpriteIndex: 25
      m_TileMatrixIndex: 0
      m_TileColorIndex: 0
      m_ObjectToInstantiate: {fileID: 0}
      m_TileFlags: 2
      m_ColliderType: 1
  - first: {x: 7, y: -11, z: 0}
    second:
      m_TileIndex: 8
      m_TileSpriteIndex: 21
      m_TileMatrixIndex: 0
      m_TileColorIndex: 0
      m_ObjectToInstantiate: {fileID: 0}
      m_TileFlags: 2
      m_ColliderType: 1
  - first: {x: 8, y: -11, z: 0}
    second:
      m_TileIndex: 8
      m_TileSpriteIndex: 21
      m_TileMatrixIndex: 0
      m_TileColorIndex: 0
      m_ObjectToInstantiate: {fileID: 0}
      m_TileFlags: 2
      m_ColliderType: 1
  - first: {x: 9, y: -11, z: 0}
    second:
      m_TileIndex: 8
      m_TileSpriteIndex: 21
      m_TileMatrixIndex: 0
      m_TileColorIndex: 0
      m_ObjectToInstantiate: {fileID: 0}
      m_TileFlags: 2
      m_ColliderType: 1
  - first: {x: 11, y: -11, z: 0}
    second:
      m_TileIndex: 7
      m_TileSpriteIndex: 35
      m_TileMatrixIndex: 1
      m_TileColorIndex: 0
      m_ObjectToInstantiate: {fileID: 0}
      m_TileFlags: 2
      m_ColliderType: 1
  - first: {x: 12, y: -11, z: 0}
    second:
      m_TileIndex: 7
      m_TileSpriteIndex: 25
      m_TileMatrixIndex: 0
      m_TileColorIndex: 0
      m_ObjectToInstantiate: {fileID: 0}
      m_TileFlags: 2
      m_ColliderType: 1
  - first: {x: 13, y: -11, z: 0}
    second:
      m_TileIndex: 7
      m_TileSpriteIndex: 20
      m_TileMatrixIndex: 0
      m_TileColorIndex: 0
      m_ObjectToInstantiate: {fileID: 0}
      m_TileFlags: 2
      m_ColliderType: 1
  - first: {x: -5, y: -9, z: 0}
    second:
      m_TileIndex: 22
      m_TileSpriteIndex: 50
      m_TileMatrixIndex: 0
      m_TileColorIndex: 0
      m_ObjectToInstantiate: {fileID: 0}
      m_TileFlags: 1
      m_ColliderType: 1
  - first: {x: 11, y: -9, z: 0}
    second:
      m_TileIndex: 5
      m_TileSpriteIndex: 10
      m_TileMatrixIndex: 0
      m_TileColorIndex: 0
      m_ObjectToInstantiate: {fileID: 0}
      m_TileFlags: 2
      m_ColliderType: 1
  - first: {x: 12, y: -9, z: 0}
    second:
      m_TileIndex: 5
      m_TileSpriteIndex: 5
      m_TileMatrixIndex: 0
      m_TileColorIndex: 0
      m_ObjectToInstantiate: {fileID: 0}
      m_TileFlags: 2
      m_ColliderType: 1
  - first: {x: 13, y: -9, z: 0}
    second:
      m_TileIndex: 5
      m_TileSpriteIndex: 4
      m_TileMatrixIndex: 1
      m_TileColorIndex: 0
      m_ObjectToInstantiate: {fileID: 0}
      m_TileFlags: 2
      m_ColliderType: 1
  - first: {x: -6, y: -8, z: 0}
    second:
      m_TileIndex: 21
      m_TileSpriteIndex: 49
      m_TileMatrixIndex: 0
      m_TileColorIndex: 0
      m_ObjectToInstantiate: {fileID: 0}
      m_TileFlags: 1
      m_ColliderType: 1
  - first: {x: -5, y: -8, z: 0}
    second:
      m_TileIndex: 20
      m_TileSpriteIndex: 1
      m_TileMatrixIndex: 0
      m_TileColorIndex: 0
      m_ObjectToInstantiate: {fileID: 0}
      m_TileFlags: 1
      m_ColliderType: 1
  - first: {x: 11, y: -8, z: 0}
    second:
      m_TileIndex: 5
      m_TileSpriteIndex: 10
      m_TileMatrixIndex: 0
      m_TileColorIndex: 0
      m_ObjectToInstantiate: {fileID: 0}
      m_TileFlags: 2
      m_ColliderType: 1
  - first: {x: 12, y: -8, z: 0}
    second:
      m_TileIndex: 5
      m_TileSpriteIndex: 4
      m_TileMatrixIndex: 1
      m_TileColorIndex: 0
      m_ObjectToInstantiate: {fileID: 0}
      m_TileFlags: 2
      m_ColliderType: 1
  - first: {x: 13, y: -8, z: 0}
    second:
      m_TileIndex: 5
      m_TileSpriteIndex: 4
      m_TileMatrixIndex: 0
      m_TileColorIndex: 0
      m_ObjectToInstantiate: {fileID: 0}
      m_TileFlags: 2
      m_ColliderType: 1
  - first: {x: -7, y: -7, z: 0}
    second:
      m_TileIndex: 4
      m_TileSpriteIndex: 0
      m_TileMatrixIndex: 0
      m_TileColorIndex: 0
      m_ObjectToInstantiate: {fileID: 0}
      m_TileFlags: 2
      m_ColliderType: 1
  - first: {x: -6, y: -7, z: 0}
    second:
      m_TileIndex: 4
      m_TileSpriteIndex: 15
      m_TileMatrixIndex: 0
      m_TileColorIndex: 0
      m_ObjectToInstantiate: {fileID: 0}
      m_TileFlags: 2
      m_ColliderType: 1
  - first: {x: -5, y: -7, z: 0}
    second:
      m_TileIndex: 4
      m_TileSpriteIndex: 15
      m_TileMatrixIndex: 0
      m_TileColorIndex: 0
      m_ObjectToInstantiate: {fileID: 0}
      m_TileFlags: 2
      m_ColliderType: 1
  - first: {x: -3, y: -7, z: 0}
    second:
      m_TileIndex: 3
      m_TileSpriteIndex: 13
      m_TileMatrixIndex: 0
      m_TileColorIndex: 0
      m_ObjectToInstantiate: {fileID: 0}
      m_TileFlags: 2
      m_ColliderType: 1
  - first: {x: -2, y: -7, z: 0}
    second:
      m_TileIndex: 3
      m_TileSpriteIndex: 13
      m_TileMatrixIndex: 0
      m_TileColorIndex: 0
      m_ObjectToInstantiate: {fileID: 0}
      m_TileFlags: 2
      m_ColliderType: 1
  - first: {x: -1, y: -7, z: 0}
    second:
      m_TileIndex: 3
      m_TileSpriteIndex: 12
      m_TileMatrixIndex: 0
      m_TileColorIndex: 0
      m_ObjectToInstantiate: {fileID: 0}
      m_TileFlags: 2
      m_ColliderType: 1
  - first: {x: 11, y: -7, z: 0}
    second:
      m_TileIndex: 5
      m_TileSpriteIndex: 10
      m_TileMatrixIndex: 0
      m_TileColorIndex: 0
      m_ObjectToInstantiate: {fileID: 0}
      m_TileFlags: 2
      m_ColliderType: 1
  - first: {x: 12, y: -7, z: 0}
    second:
      m_TileIndex: 5
      m_TileSpriteIndex: 4
      m_TileMatrixIndex: 1
      m_TileColorIndex: 0
      m_ObjectToInstantiate: {fileID: 0}
      m_TileFlags: 2
      m_ColliderType: 1
  - first: {x: 13, y: -7, z: 0}
    second:
      m_TileIndex: 5
      m_TileSpriteIndex: 5
      m_TileMatrixIndex: 0
      m_TileColorIndex: 0
      m_ObjectToInstantiate: {fileID: 0}
      m_TileFlags: 2
      m_ColliderType: 1
  - first: {x: -7, y: -6, z: 0}
    second:
      m_TileIndex: 4
      m_TileSpriteIndex: 34
      m_TileMatrixIndex: 1
      m_TileColorIndex: 0
      m_ObjectToInstantiate: {fileID: 0}
      m_TileFlags: 2
      m_ColliderType: 1
  - first: {x: -6, y: -6, z: 0}
    second:
      m_TileIndex: 4
      m_TileSpriteIndex: 0
      m_TileMatrixIndex: 0
      m_TileColorIndex: 0
      m_ObjectToInstantiate: {fileID: 0}
      m_TileFlags: 2
      m_ColliderType: 1
  - first: {x: -5, y: -6, z: 0}
    second:
      m_TileIndex: 4
      m_TileSpriteIndex: 15
      m_TileMatrixIndex: 0
      m_TileColorIndex: 0
      m_ObjectToInstantiate: {fileID: 0}
      m_TileFlags: 2
      m_ColliderType: 1
  - first: {x: -3, y: -6, z: 0}
    second:
      m_TileIndex: 3
      m_TileSpriteIndex: 13
      m_TileMatrixIndex: 0
      m_TileColorIndex: 0
      m_ObjectToInstantiate: {fileID: 0}
      m_TileFlags: 2
      m_ColliderType: 1
  - first: {x: -2, y: -6, z: 0}
    second:
      m_TileIndex: 3
      m_TileSpriteIndex: 11
      m_TileMatrixIndex: 0
      m_TileColorIndex: 0
      m_ObjectToInstantiate: {fileID: 0}
      m_TileFlags: 2
      m_ColliderType: 1
  - first: {x: -1, y: -6, z: 0}
    second:
      m_TileIndex: 3
      m_TileSpriteIndex: 31
      m_TileMatrixIndex: 0
      m_TileColorIndex: 0
      m_ObjectToInstantiate: {fileID: 0}
      m_TileFlags: 2
      m_ColliderType: 1
  - first: {x: -7, y: -5, z: 0}
    second:
      m_TileIndex: 4
      m_TileSpriteIndex: 0
      m_TileMatrixIndex: 1
      m_TileColorIndex: 0
      m_ObjectToInstantiate: {fileID: 0}
      m_TileFlags: 2
      m_ColliderType: 1
  - first: {x: -6, y: -5, z: 0}
    second:
      m_TileIndex: 4
      m_TileSpriteIndex: 0
      m_TileMatrixIndex: 1
      m_TileColorIndex: 0
      m_ObjectToInstantiate: {fileID: 0}
      m_TileFlags: 2
      m_ColliderType: 1
  - first: {x: -5, y: -5, z: 0}
    second:
      m_TileIndex: 4
      m_TileSpriteIndex: 0
      m_TileMatrixIndex: 1
      m_TileColorIndex: 0
      m_ObjectToInstantiate: {fileID: 0}
      m_TileFlags: 2
      m_ColliderType: 1
  - first: {x: -3, y: -5, z: 0}
    second:
      m_TileIndex: 3
      m_TileSpriteIndex: 11
      m_TileMatrixIndex: 0
      m_TileColorIndex: 0
      m_ObjectToInstantiate: {fileID: 0}
      m_TileFlags: 2
      m_ColliderType: 1
  - first: {x: -2, y: -5, z: 0}
    second:
      m_TileIndex: 3
      m_TileSpriteIndex: 12
      m_TileMatrixIndex: 1
      m_TileColorIndex: 0
      m_ObjectToInstantiate: {fileID: 0}
      m_TileFlags: 2
      m_ColliderType: 1
  - first: {x: -1, y: -5, z: 0}
    second:
      m_TileIndex: 3
      m_TileSpriteIndex: 12
      m_TileMatrixIndex: 1
      m_TileColorIndex: 0
      m_ObjectToInstantiate: {fileID: 0}
      m_TileFlags: 2
      m_ColliderType: 1
  - first: {x: 3, y: -5, z: 0}
    second:
      m_TileIndex: 1
      m_TileSpriteIndex: 6
      m_TileMatrixIndex: 1
      m_TileColorIndex: 0
      m_ObjectToInstantiate: {fileID: 0}
      m_TileFlags: 2
      m_ColliderType: 1
  - first: {x: 4, y: -5, z: 0}
    second:
      m_TileIndex: 1
      m_TileSpriteIndex: 6
      m_TileMatrixIndex: 0
      m_TileColorIndex: 0
      m_ObjectToInstantiate: {fileID: 0}
      m_TileFlags: 2
      m_ColliderType: 1
  - first: {x: 5, y: -5, z: 0}
    second:
      m_TileIndex: 1
      m_TileSpriteIndex: 6
      m_TileMatrixIndex: 0
      m_TileColorIndex: 0
      m_ObjectToInstantiate: {fileID: 0}
      m_TileFlags: 2
      m_ColliderType: 1
  - first: {x: 3, y: -4, z: 0}
    second:
      m_TileIndex: 1
      m_TileSpriteIndex: 6
      m_TileMatrixIndex: 1
      m_TileColorIndex: 0
      m_ObjectToInstantiate: {fileID: 0}
      m_TileFlags: 2
      m_ColliderType: 1
  - first: {x: 4, y: -4, z: 0}
    second:
      m_TileIndex: 1
      m_TileSpriteIndex: 29
      m_TileMatrixIndex: 0
      m_TileColorIndex: 0
      m_ObjectToInstantiate: {fileID: 0}
      m_TileFlags: 2
      m_ColliderType: 1
  - first: {x: 5, y: -4, z: 0}
    second:
      m_TileIndex: 1
      m_TileSpriteIndex: 2
      m_TileMatrixIndex: 1
      m_TileColorIndex: 0
      m_ObjectToInstantiate: {fileID: 0}
      m_TileFlags: 2
      m_ColliderType: 1
  - first: {x: 3, y: -3, z: 0}
    second:
      m_TileIndex: 1
      m_TileSpriteIndex: 2
      m_TileMatrixIndex: 0
      m_TileColorIndex: 0
      m_ObjectToInstantiate: {fileID: 0}
      m_TileFlags: 2
      m_ColliderType: 1
  - first: {x: 4, y: -3, z: 0}
    second:
      m_TileIndex: 1
      m_TileSpriteIndex: 6
      m_TileMatrixIndex: 0
      m_TileColorIndex: 0
      m_ObjectToInstantiate: {fileID: 0}
      m_TileFlags: 2
      m_ColliderType: 1
  - first: {x: 5, y: -3, z: 0}
    second:
      m_TileIndex: 1
      m_TileSpriteIndex: 6
      m_TileMatrixIndex: 1
      m_TileColorIndex: 0
      m_ObjectToInstantiate: {fileID: 0}
      m_TileFlags: 2
      m_ColliderType: 1
  - first: {x: 11, y: -3, z: 0}
    second:
      m_TileIndex: 17
      m_TileSpriteIndex: 23
      m_TileMatrixIndex: 0
      m_TileColorIndex: 0
      m_ObjectToInstantiate: {fileID: 0}
      m_TileFlags: 1
      m_ColliderType: 1
  - first: {x: 14, y: -2, z: 0}
    second:
      m_TileIndex: 18
      m_TileSpriteIndex: 14
      m_TileMatrixIndex: 0
      m_TileColorIndex: 0
      m_ObjectToInstantiate: {fileID: 0}
      m_TileFlags: 1
      m_ColliderType: 1
  - first: {x: -1, y: -1, z: 0}
    second:
      m_TileIndex: 6
      m_TileSpriteIndex: 48
      m_TileMatrixIndex: 0
      m_TileColorIndex: 0
      m_ObjectToInstantiate: {fileID: 0}
      m_TileFlags: 2
      m_ColliderType: 1
  - first: {x: 0, y: -1, z: 0}
    second:
      m_TileIndex: 6
      m_TileSpriteIndex: 28
      m_TileMatrixIndex: 0
      m_TileColorIndex: 0
      m_ObjectToInstantiate: {fileID: 0}
      m_TileFlags: 2
      m_ColliderType: 1
  - first: {x: 1, y: -1, z: 0}
    second:
      m_TileIndex: 6
      m_TileSpriteIndex: 48
      m_TileMatrixIndex: 0
      m_TileColorIndex: 0
      m_ObjectToInstantiate: {fileID: 0}
      m_TileFlags: 2
      m_ColliderType: 1
  - first: {x: 3, y: -1, z: 0}
    second:
      m_TileIndex: 2
      m_TileSpriteIndex: 9
      m_TileMatrixIndex: 0
      m_TileColorIndex: 0
      m_ObjectToInstantiate: {fileID: 0}
      m_TileFlags: 2
      m_ColliderType: 1
  - first: {x: 4, y: -1, z: 0}
    second:
      m_TileIndex: 2
      m_TileSpriteIndex: 8
      m_TileMatrixIndex: 0
      m_TileColorIndex: 0
      m_ObjectToInstantiate: {fileID: 0}
      m_TileFlags: 2
      m_ColliderType: 1
  - first: {x: 5, y: -1, z: 0}
    second:
      m_TileIndex: 2
      m_TileSpriteIndex: 8
      m_TileMatrixIndex: 0
      m_TileColorIndex: 0
      m_ObjectToInstantiate: {fileID: 0}
      m_TileFlags: 2
      m_ColliderType: 1
  - first: {x: 12, y: -1, z: 0}
    second:
      m_TileIndex: 16
      m_TileSpriteIndex: 22
      m_TileMatrixIndex: 0
      m_TileColorIndex: 0
      m_ObjectToInstantiate: {fileID: 0}
      m_TileFlags: 1
      m_ColliderType: 1
  - first: {x: -1, y: 0, z: 0}
    second:
      m_TileIndex: 6
      m_TileSpriteIndex: 48
      m_TileMatrixIndex: 0
      m_TileColorIndex: 0
      m_ObjectToInstantiate: {fileID: 0}
      m_TileFlags: 2
      m_ColliderType: 1
  - first: {x: 0, y: 0, z: 0}
    second:
      m_TileIndex: 6
      m_TileSpriteIndex: 48
      m_TileMatrixIndex: 0
      m_TileColorIndex: 0
      m_ObjectToInstantiate: {fileID: 0}
      m_TileFlags: 2
      m_ColliderType: 1
  - first: {x: 1, y: 0, z: 0}
    second:
      m_TileIndex: 6
      m_TileSpriteIndex: 48
      m_TileMatrixIndex: 0
      m_TileColorIndex: 0
      m_ObjectToInstantiate: {fileID: 0}
      m_TileFlags: 2
      m_ColliderType: 1
  - first: {x: 3, y: 0, z: 0}
    second:
      m_TileIndex: 2
      m_TileSpriteIndex: 7
      m_TileMatrixIndex: 0
      m_TileColorIndex: 0
      m_ObjectToInstantiate: {fileID: 0}
      m_TileFlags: 2
      m_ColliderType: 1
  - first: {x: 4, y: 0, z: 0}
    second:
      m_TileIndex: 2
      m_TileSpriteIndex: 7
      m_TileMatrixIndex: 0
      m_TileColorIndex: 0
      m_ObjectToInstantiate: {fileID: 0}
      m_TileFlags: 2
      m_ColliderType: 1
  - first: {x: 5, y: 0, z: 0}
    second:
      m_TileIndex: 2
      m_TileSpriteIndex: 7
      m_TileMatrixIndex: 0
      m_TileColorIndex: 0
      m_ObjectToInstantiate: {fileID: 0}
      m_TileFlags: 2
      m_ColliderType: 1
  - first: {x: -1, y: 1, z: 0}
    second:
      m_TileIndex: 6
      m_TileSpriteIndex: 48
      m_TileMatrixIndex: 0
      m_TileColorIndex: 0
      m_ObjectToInstantiate: {fileID: 0}
      m_TileFlags: 2
      m_ColliderType: 1
  - first: {x: 0, y: 1, z: 0}
    second:
      m_TileIndex: 6
      m_TileSpriteIndex: 48
      m_TileMatrixIndex: 1
      m_TileColorIndex: 0
      m_ObjectToInstantiate: {fileID: 0}
      m_TileFlags: 2
      m_ColliderType: 1
  - first: {x: 1, y: 1, z: 0}
    second:
      m_TileIndex: 6
      m_TileSpriteIndex: 28
      m_TileMatrixIndex: 0
      m_TileColorIndex: 0
      m_ObjectToInstantiate: {fileID: 0}
      m_TileFlags: 2
      m_ColliderType: 1
  - first: {x: 3, y: 1, z: 0}
    second:
      m_TileIndex: 2
      m_TileSpriteIndex: 7
      m_TileMatrixIndex: 1
      m_TileColorIndex: 0
      m_ObjectToInstantiate: {fileID: 0}
      m_TileFlags: 2
      m_ColliderType: 1
  - first: {x: 4, y: 1, z: 0}
    second:
      m_TileIndex: 2
      m_TileSpriteIndex: 9
      m_TileMatrixIndex: 1
      m_TileColorIndex: 0
      m_ObjectToInstantiate: {fileID: 0}
      m_TileFlags: 2
      m_ColliderType: 1
  - first: {x: 5, y: 1, z: 0}
    second:
      m_TileIndex: 2
      m_TileSpriteIndex: 26
      m_TileMatrixIndex: 1
      m_TileColorIndex: 0
      m_ObjectToInstantiate: {fileID: 0}
      m_TileFlags: 2
      m_ColliderType: 1
  - first: {x: 11, y: 1, z: 0}
    second:
      m_TileIndex: 0
      m_TileSpriteIndex: 23
      m_TileMatrixIndex: 0
      m_TileColorIndex: 0
      m_ObjectToInstantiate: {fileID: 0}
      m_TileFlags: 1
      m_ColliderType: 1
  - first: {x: 11, y: 6, z: 0}
    second:
      m_TileIndex: 19
      m_TileSpriteIndex: 3
      m_TileMatrixIndex: 0
      m_TileColorIndex: 0
      m_ObjectToInstantiate: {fileID: 0}
      m_TileFlags: 1
      m_ColliderType: 1
  m_AnimatedTiles: {}
  m_TileAssetArray:
  - m_RefCount: 1
    m_Data: {fileID: 11400000, guid: 044ebeca93d83654db8d57abcda5135c, type: 2}
  - m_RefCount: 9
    m_Data: {fileID: 11400000, guid: 739d9c76a05e863419d2aa2a25eac230, type: 2}
  - m_RefCount: 9
    m_Data: {fileID: 11400000, guid: 1e3819d62e6f6b74eb55efd9b7862080, type: 2}
  - m_RefCount: 9
    m_Data: {fileID: 11400000, guid: 3289d0408ed39374e92d96169a3ce996, type: 2}
  - m_RefCount: 9
    m_Data: {fileID: 11400000, guid: bf438c60cdb63bb49b537bcded69beaa, type: 2}
  - m_RefCount: 9
    m_Data: {fileID: 11400000, guid: f84b12e27ceeac749ba15cb2200fbfff, type: 2}
  - m_RefCount: 9
    m_Data: {fileID: 11400000, guid: c6301f103f0aaaa4b8c92f10d50d35d6, type: 2}
  - m_RefCount: 9
    m_Data: {fileID: 11400000, guid: 77c91fc06982639439f4df82d7c5d97c, type: 2}
  - m_RefCount: 9
    m_Data: {fileID: 11400000, guid: 45008f92726043a4abadf03a81430678, type: 2}
  - m_RefCount: 9
    m_Data: {fileID: 11400000, guid: fb746cdab0ec8e54cad132ee946dc959, type: 2}
  - m_RefCount: 9
    m_Data: {fileID: 11400000, guid: 70bb23fb2f08cd8408147b35eb9793bb, type: 2}
  - m_RefCount: 9
    m_Data: {fileID: 11400000, guid: f089279c83143f8418773c6b22439753, type: 2}
  - m_RefCount: 9
    m_Data: {fileID: 11400000, guid: 6be7c6c7786fa7a45afae2d6002cbcc6, type: 2}
  - m_RefCount: 9
    m_Data: {fileID: 11400000, guid: 78c5e35c4336d2146ab0a4ce7b44ce14, type: 2}
  - m_RefCount: 9
    m_Data: {fileID: 11400000, guid: 3db0b9e7ad952704baa47e26ebf3906e, type: 2}
  - m_RefCount: 9
    m_Data: {fileID: 11400000, guid: 7bf281396c092e441a872b432e8b73c1, type: 2}
  - m_RefCount: 1
    m_Data: {fileID: 11400000, guid: 314a2959bafaf5f4ebcd157ed935c4e2, type: 2}
  - m_RefCount: 1
    m_Data: {fileID: 11400000, guid: bdffd86228a0127419d59ebc1e50fd91, type: 2}
  - m_RefCount: 1
    m_Data: {fileID: 11400000, guid: 34516f75f4353a242ab59c61b72419e9, type: 2}
  - m_RefCount: 1
    m_Data: {fileID: 11400000, guid: d8eeb92529714d44e8f7a674267fbf7b, type: 2}
  - m_RefCount: 1
    m_Data: {fileID: 11400000, guid: 1e41474016a009d47ba96b2ac2b1dd06, type: 2}
  - m_RefCount: 1
    m_Data: {fileID: 11400000, guid: a6f1d80b4cac4704889fcceb1fa0c847, type: 2}
  - m_RefCount: 1
    m_Data: {fileID: 11400000, guid: 290af8330ce7ecb46a33394e43d0950d, type: 2}
  - m_RefCount: 2
    m_Data: {fileID: 11400000, guid: bbe1039a73cb04a4db7e81501225bb46, type: 2}
  - m_RefCount: 2
    m_Data: {fileID: 11400000, guid: f33ed7eb8e0d94540b49ee40617cac64, type: 2}
  - m_RefCount: 2
    m_Data: {fileID: 11400000, guid: 65567705a06834642a3a558d4841fb2e, type: 2}
  - m_RefCount: 1
    m_Data: {fileID: 11400000, guid: a742a29ac60d841d39bf94b399647333, type: 2}
  - m_RefCount: 1
    m_Data: {fileID: 11400000, guid: cbf694c6d4cf7407fa98171d5b460804, type: 2}
  - m_RefCount: 1
    m_Data: {fileID: 11400000, guid: 3c8513f60da284fd49e1febc1125d01b, type: 2}
  - m_RefCount: 1
    m_Data: {fileID: 11400000, guid: 5728af52a853d4e7c99b4cd9b35a24c4, type: 2}
  - m_RefCount: 1
    m_Data: {fileID: 11400000, guid: 7e12fb73967d34777ba76171e8be7b04, type: 2}
  - m_RefCount: 1
    m_Data: {fileID: 11400000, guid: 2655b78189c934c049014795a63848c2, type: 2}
  - m_RefCount: 1
    m_Data: {fileID: 11400000, guid: 9fda3ab080ea045df984418fa0ae89fa, type: 2}
  - m_RefCount: 1
    m_Data: {fileID: 11400000, guid: 7fa49cf4a88c04426910476f99b98ed5, type: 2}
  - m_RefCount: 1
    m_Data: {fileID: 11400000, guid: cdc7cdfe54bd949bc8d15301aea6ebbb, type: 2}
  - m_RefCount: 1
    m_Data: {fileID: 11400000, guid: b34450756e99e469bb0f1a38140dc444, type: 2}
  - m_RefCount: 1
    m_Data: {fileID: 11400000, guid: f0c9dbc04658b4c2db958ab415fdca2e, type: 2}
  - m_RefCount: 1
    m_Data: {fileID: 11400000, guid: f2a0799670ff8402b921712e57a8baf3, type: 2}
  m_TileSpriteArray:
  - m_RefCount: 5
    m_Data: {fileID: 21300000, guid: 942cd32e35640c146ab116b6d4d08da4, type: 3}
  - m_RefCount: 1
    m_Data: {fileID: 21300000, guid: 6199e367306afba4fb2b434ada112692, type: 3}
  - m_RefCount: 2
    m_Data: {fileID: 21300000, guid: 47bc5da5257aeec4c83f3e63e642ea69, type: 3}
  - m_RefCount: 1
    m_Data: {fileID: 21300000, guid: 65f197e0b55d5174081ccf7fb6ac0799, type: 3}
  - m_RefCount: 4
    m_Data: {fileID: 21300000, guid: 4398f34ebb1505f4c9cb59ded7903c42, type: 3}
  - m_RefCount: 2
    m_Data: {fileID: 21300000, guid: 30d66a74b561b6247bec46a3f37c921a, type: 3}
  - m_RefCount: 6
    m_Data: {fileID: 21300000, guid: d0f8d288ad6debb44b6991c153b8e6ed, type: 3}
  - m_RefCount: 4
    m_Data: {fileID: 21300000, guid: 4c5d6c26c79b6d546b6b99b422bdb648, type: 3}
  - m_RefCount: 2
    m_Data: {fileID: 21300000, guid: 6feb59edc9a9472498998aabbf40ee85, type: 3}
  - m_RefCount: 2
    m_Data: {fileID: 21300000, guid: c7f45372f89932f4cafa2227c620c42c, type: 3}
  - m_RefCount: 3
    m_Data: {fileID: 21300000, guid: 891f8b3a047c74547901ee88145cfa09, type: 3}
  - m_RefCount: 2
    m_Data: {fileID: 21300000, guid: 154d133b5c43c754193d96a980493a39, type: 3}
  - m_RefCount: 3
    m_Data: {fileID: 21300000, guid: 83079e506618ae24187f11e0f7e41c42, type: 3}
  - m_RefCount: 3
    m_Data: {fileID: 21300000, guid: 349def5cbbfb987418465220ecc08562, type: 3}
  - m_RefCount: 1
    m_Data: {fileID: 21300000, guid: df3719ff2d9cf7048a0254d8f6414e1a, type: 3}
  - m_RefCount: 3
    m_Data: {fileID: 21300000, guid: db807ee3301ce9e4c8d3610fdf69f894, type: 3}
  - m_RefCount: 7
    m_Data: {fileID: 21300000, guid: 52cef375ef1d0554a90c0ba8d1674c02, type: 3}
  - m_RefCount: 3
    m_Data: {fileID: 21300000, guid: 9508c960308f5ac4fbe4d549dc0b9cde, type: 3}
  - m_RefCount: 2
    m_Data: {fileID: 21300000, guid: 7ae3e74066cc63f4fbb6d1668c742138, type: 3}
  - m_RefCount: 1
    m_Data: {fileID: 21300000, guid: 7bf20ce4e0d55f549aa154145f2c4213, type: 3}
  - m_RefCount: 2
    m_Data: {fileID: 21300000, guid: 5853a945432d4934b9586647f5995394, type: 3}
  - m_RefCount: 5
    m_Data: {fileID: 21300000, guid: c1d93a0f56a30f448b16bcd2a4f35903, type: 3}
  - m_RefCount: 1
    m_Data: {fileID: 21300000, guid: ddba491d794068b46ba646e1efbf32a6, type: 3}
  - m_RefCount: 2
    m_Data: {fileID: 21300000, guid: c757761b08f64df4b93244d5ef737b76, type: 3}
  - m_RefCount: 2
    m_Data: {fileID: 21300000, guid: 15730c75e42a3ae42bcf6c9529519f6a, type: 3}
  - m_RefCount: 4
    m_Data: {fileID: 21300000, guid: 9d613a282e76d0840902f2a92c4eb1c4, type: 3}
  - m_RefCount: 1
    m_Data: {fileID: 21300000, guid: 45af2e01cbe6ba841b3cb80f42b2ca55, type: 3}
  - m_RefCount: 3
    m_Data: {fileID: 21300000, guid: 2b4c869fe4afcd14988840ca455ef401, type: 3}
  - m_RefCount: 2
    m_Data: {fileID: 21300000, guid: 47b5725ff292d4640b9d51ef4c74a00c, type: 3}
  - m_RefCount: 1
    m_Data: {fileID: 21300000, guid: dd285426b28490540b9eaf89ce3f4182, type: 3}
  - m_RefCount: 4
    m_Data: {fileID: 21300000, guid: 4495010f0f608e84498564b6ae27cfff, type: 3}
  - m_RefCount: 1
    m_Data: {fileID: 21300000, guid: 37f1b3547942106468df1f34edf13f2d, type: 3}
  - m_RefCount: 6
    m_Data: {fileID: 21300000, guid: e1b008b354f0b6e4e8dc71bf07c7cee1, type: 3}
  - m_RefCount: 3
    m_Data: {fileID: 21300000, guid: 8bd8a84fc6db3644fa4d984068398d9d, type: 3}
  - m_RefCount: 1
    m_Data: {fileID: 21300000, guid: 19050777308d0184d945328d17732d26, type: 3}
  - m_RefCount: 1
    m_Data: {fileID: 21300000, guid: 6e519d11ee68d0746baede35d77154ba, type: 3}
  - m_RefCount: 5
    m_Data: {fileID: 21300000, guid: 8a319db3178c1354bb7f2b1d7f5e5bf2, type: 3}
  - m_RefCount: 7
    m_Data: {fileID: 21300000, guid: bf7ebbf343cee7c4b9c1a7c3f629ecfe, type: 3}
  - m_RefCount: 2
    m_Data: {fileID: 21300000, guid: fd5e1ba53b59a0c48ac6bbf17322b439, type: 3}
  - m_RefCount: 1
    m_Data: {fileID: 21300000, guid: a326f9c1a909d3441a0bd01ad4f23ae8, type: 3}
  - m_RefCount: 6
    m_Data: {fileID: 21300000, guid: 84a9224c2d7c7394487ff100bb97aff5, type: 3}
  - m_RefCount: 1
    m_Data: {fileID: 21300000, guid: 6a09cf075fd315e44b7324fd250a3ac2, type: 3}
  - m_RefCount: 1
    m_Data: {fileID: 21300000, guid: e9fd822aa2b1f1c46a19863b254e8e65, type: 3}
  - m_RefCount: 3
    m_Data: {fileID: 21300000, guid: c5e8ad2cccaa2304aa67a7665cef06b4, type: 3}
  - m_RefCount: 4
    m_Data: {fileID: 21300000, guid: 001bcd2f252c5de4092a9de6d3d50454, type: 3}
  - m_RefCount: 4
    m_Data: {fileID: 21300000, guid: 9bad3ccaa2f4a9c4babd138aac19f062, type: 3}
  - m_RefCount: 1
    m_Data: {fileID: 21300000, guid: 8eb6ece3f25fb4949bc6e858a5167a42, type: 3}
  - m_RefCount: 3
    m_Data: {fileID: 21300000, guid: bf3e5ac7dd212e7478eb2861e454145d, type: 3}
  - m_RefCount: 7
    m_Data: {fileID: 21300000, guid: ec8ccc2cf6da86f4ab9b11f4a2ab3d2d, type: 3}
  - m_RefCount: 1
    m_Data: {fileID: 21300000, guid: 13effef3774f8a84bb9106d5bba8b185, type: 3}
  - m_RefCount: 1
    m_Data: {fileID: 21300000, guid: e4a05284ff97e60419331430a50cb219, type: 3}
  - m_RefCount: 2
    m_Data: {fileID: 21300000, guid: 83b9904c54dbe4b8ba227406b0a259c3, type: 3}
  - m_RefCount: 2
    m_Data: {fileID: 21300000, guid: e308331e58a9f474a89006337eb33d3e, type: 3}
  - m_RefCount: 2
    m_Data: {fileID: 21300000, guid: 2abfa0b69193b46c4b7848a29c8a3c6f, type: 3}
  - m_RefCount: 1
    m_Data: {fileID: 21300000, guid: 3b9c38445f15341d3a30049b1e724d7c, type: 3}
  - m_RefCount: 1
    m_Data: {fileID: 21300000, guid: 063edbe48872b4ab39d61247bfbc7217, type: 3}
  - m_RefCount: 1
    m_Data: {fileID: 21300000, guid: 97367e8fd5a5c405fa7cda4d1139ad5c, type: 3}
  - m_RefCount: 1
    m_Data: {fileID: 21300000, guid: b6548471931e44419bb578976f69c7ba, type: 3}
  - m_RefCount: 1
    m_Data: {fileID: 21300000, guid: 6b9080908d34f4ed4b111f8752045ecf, type: 3}
  - m_RefCount: 1
    m_Data: {fileID: 21300000, guid: 8b08bcd21cb8a42fba868f390b68099b, type: 3}
  - m_RefCount: 1
    m_Data: {fileID: 21300000, guid: 6b19fa030e22a4aa7a4ebc2029911cf4, type: 3}
  - m_RefCount: 1
    m_Data: {fileID: 21300000, guid: 9f01b32e1265842a8ad55a4483d583c9, type: 3}
  - m_RefCount: 1
    m_Data: {fileID: 21300000, guid: 4a84cc2d487664161aacd5a7f6e84df8, type: 3}
  - m_RefCount: 1
    m_Data: {fileID: 21300000, guid: ed8786350b43746719629d0e1c8d5a45, type: 3}
  - m_RefCount: 1
    m_Data: {fileID: 21300000, guid: a776d11a6af034008bdcb032763c4c4c, type: 3}
  - m_RefCount: 1
    m_Data: {fileID: 21300000, guid: cd8a00ab8c9644c449810e6556ee77f8, type: 3}
  m_TileMatrixArray:
  - m_RefCount: 119
    m_Data:
      e00: 1
      e01: 0
      e02: 0
      e03: 0
      e10: 0
      e11: 1
      e12: 0
      e13: 0
      e20: 0
      e21: 0
      e22: 1
      e23: 0
      e30: 0
      e31: 0
      e32: 0
      e33: 1
  - m_RefCount: 42
    m_Data:
      e00: -1
      e01: 0
      e02: 0
      e03: 0
      e10: 0
      e11: 1
      e12: 0
      e13: 0
      e20: 0
      e21: 0
      e22: 1
      e23: 0
      e30: 0
      e31: 0
      e32: 0
      e33: 1
  - m_RefCount: 0
    m_Data:
      e00: 0
      e01: 1.0537017e-23
      e02: 0
      e03: 829.8545
      e10: 0
      e11: 8.7986e-41
      e12: 0
      e13: 1e-45
      e20: 1.05796335e-35
      e21: 26.277542
      e22: 1.01322275e-35
      e23: 111.63086
      e30: 0
      e31: 1e-45
      e32: 0
      e33: 1e-45
  m_TileColorArray:
  - m_RefCount: 161
    m_Data: {r: 1, g: 1, b: 1, a: 1}
  - m_RefCount: 0
    m_Data: {r: 1.3e-44, g: 1.3e-44, b: 1.3e-44, a: 1.3e-44}
  m_AnimationFrameRate: 1
  m_Color: {r: 1, g: 1, b: 1, a: 1}
  m_Origin: {x: -16, y: -24, z: 0}
  m_Size: {x: 31, y: 31, z: 1}
  m_TileAnchor: {x: 1, y: 1, z: 0}
  m_TileOrientation: 0
  m_TileOrientationMatrix:
    e00: 1
    e01: 0
    e02: 0
    e03: 0
    e10: 0
    e11: 1
    e12: 0
    e13: 0
    e20: 0
    e21: 0
    e22: 1
    e23: 0
    e30: 0
    e31: 0
    e32: 0
    e33: 1
--- !u!483693784 &8290449178863635489
TilemapRenderer:
  m_ObjectHideFlags: 0
  m_CorrespondingSourceObject: {fileID: 0}
  m_PrefabInstance: {fileID: 0}
  m_PrefabAsset: {fileID: 0}
  m_GameObject: {fileID: 1522717136338805002}
  m_Enabled: 0
  m_CastShadows: 0
  m_ReceiveShadows: 0
  m_DynamicOccludee: 0
  m_MotionVectors: 1
  m_LightProbeUsage: 0
  m_ReflectionProbeUsage: 0
  m_RenderingLayerMask: 1
  m_RendererPriority: 0
  m_Materials:
  - {fileID: 10754, guid: 0000000000000000f000000000000000, type: 0}
  m_StaticBatchInfo:
    firstSubMesh: 0
    subMeshCount: 0
  m_StaticBatchRoot: {fileID: 0}
  m_ProbeAnchor: {fileID: 0}
  m_LightProbeVolumeOverride: {fileID: 0}
  m_ScaleInLightmap: 1
  m_PreserveUVs: 0
  m_IgnoreNormalsForChartDetection: 0
  m_ImportantGI: 0
  m_StitchLightmapSeams: 0
  m_SelectedEditorRenderState: 0
  m_MinimumChartSize: 4
  m_AutoUVMaxDistance: 0.5
  m_AutoUVMaxAngle: 89
  m_LightmapParameters: {fileID: 0}
  m_SortingLayerID: 0
  m_SortingLayer: 0
  m_SortingOrder: 0
  m_ChunkSize: {x: 32, y: 32, z: 32}
  m_ChunkCullingBounds: {x: 0.12048185, y: 0.2610442, z: 0}
  m_MaxChunkCount: 16
  m_MaxFrameAge: 16
  m_SortOrder: 3
  m_Mode: 1
  m_DetectChunkCullingBounds: 0
  m_MaskInteraction: 0
--- !u!1 &4780146286435566735
GameObject:
  m_ObjectHideFlags: 0
  m_CorrespondingSourceObject: {fileID: 0}
  m_PrefabInstance: {fileID: 0}
  m_PrefabAsset: {fileID: 0}
  serializedVersion: 6
  m_Component:
  - component: {fileID: 3325490175236293567}
  - component: {fileID: 452852944551863904}
  m_Layer: 31
  m_Name: Palette_RuleTiles_Random
  m_TagString: Untagged
  m_Icon: {fileID: 0}
  m_NavMeshLayer: 0
  m_StaticEditorFlags: 0
  m_IsActive: 1
--- !u!4 &3325490175236293567
Transform:
  m_ObjectHideFlags: 0
  m_CorrespondingSourceObject: {fileID: 0}
  m_PrefabInstance: {fileID: 0}
  m_PrefabAsset: {fileID: 0}
  m_GameObject: {fileID: 4780146286435566735}
  m_LocalRotation: {x: 0, y: 0, z: 0, w: 1}
  m_LocalPosition: {x: 0, y: 0, z: 0}
  m_LocalScale: {x: 1, y: 1, z: 1}
  m_Children:
  - {fileID: 3750767040499426759}
  m_Father: {fileID: 0}
  m_RootOrder: 0
  m_LocalEulerAnglesHint: {x: 0, y: 0, z: 0}
--- !u!156049354 &452852944551863904
Grid:
  m_ObjectHideFlags: 0
  m_CorrespondingSourceObject: {fileID: 0}
  m_PrefabInstance: {fileID: 0}
  m_PrefabAsset: {fileID: 0}
  m_GameObject: {fileID: 4780146286435566735}
  m_Enabled: 1
  m_CellSize: {x: 1, y: 0.5, z: 1}
  m_CellGap: {x: 0, y: 0, z: 0}
  m_CellLayout: 2
  m_CellSwizzle: 0
--- !u!114 &114355855565562780
MonoBehaviour:
  m_ObjectHideFlags: 0
  m_CorrespondingSourceObject: {fileID: 0}
  m_PrefabInstance: {fileID: 0}
  m_PrefabAsset: {fileID: 0}
  m_GameObject: {fileID: 0}
  m_Enabled: 1
  m_EditorHideFlags: 0
  m_Script: {fileID: 12395, guid: 0000000000000000e000000000000000, type: 0}
  m_Name: Palette Settings
  m_EditorClassIdentifier: 
  cellSizing: 100
