%YAML 1.1
%TAG !u! tag:unity3d.com,2011:
--- !u!1001 &1882739078778831146
PrefabInstance:
  m_ObjectHideFlags: 0
  serializedVersion: 2
  m_Modification:
    m_TransformParent: {fileID: 0}
    m_Modifications:
    - target: {fileID: 3964383484055248721, guid: f1625f514c2d1c94ead5db89a8eb4762,
        type: 3}
      propertyPath: m_Name
      value: Block 4
      objectReference: {fileID: 0}
    - target: {fileID: 4423905417969083739, guid: f1625f514c2d1c94ead5db89a8eb4762,
        type: 3}
      propertyPath: m_LocalPosition.x
      value: -4.53
      objectReference: {fileID: 0}
    - target: {fileID: 4423905417969083739, guid: f1625f514c2d1c94ead5db89a8eb4762,
        type: 3}
      propertyPath: m_LocalPosition.y
      value: 0
      objectReference: {fileID: 0}
    - target: {fileID: 4423905417969083739, guid: f1625f514c2d1c94ead5db89a8eb4762,
        type: 3}
      propertyPath: m_LocalPosition.z
      value: 0
      objectReference: {fileID: 0}
    - target: {fileID: 4423905417969083739, guid: f1625f514c2d1c94ead5db89a8eb4762,
        type: 3}
      propertyPath: m_LocalRotation.x
      value: 0
      objectReference: {fileID: 0}
    - target: {fileID: 4423905417969083739, guid: f1625f514c2d1c94ead5db89a8eb4762,
        type: 3}
      propertyPath: m_LocalRotation.y
      value: 0
      objectReference: {fileID: 0}
    - target: {fileID: 4423905417969083739, guid: f1625f514c2d1c94ead5db89a8eb4762,
        type: 3}
      propertyPath: m_LocalRotation.z
      value: 0
      objectReference: {fileID: 0}
    - target: {fileID: 4423905417969083739, guid: f1625f514c2d1c94ead5db89a8eb4762,
        type: 3}
      propertyPath: m_LocalRotation.w
      value: 1
      objectReference: {fileID: 0}
    - target: {fileID: 4423905417969083739, guid: f1625f514c2d1c94ead5db89a8eb4762,
        type: 3}
      propertyPath: m_RootOrder
      value: 0
      objectReference: {fileID: 0}
    - target: {fileID: 4423905417969083739, guid: f1625f514c2d1c94ead5db89a8eb4762,
        type: 3}
      propertyPath: m_LocalEulerAnglesHint.x
      value: 0
      objectReference: {fileID: 0}
    - target: {fileID: 4423905417969083739, guid: f1625f514c2d1c94ead5db89a8eb4762,
        type: 3}
      propertyPath: m_LocalEulerAnglesHint.y
      value: 0
      objectReference: {fileID: 0}
    - target: {fileID: 4423905417969083739, guid: f1625f514c2d1c94ead5db89a8eb4762,
        type: 3}
      propertyPath: m_LocalEulerAnglesHint.z
      value: 0
      objectReference: {fileID: 0}
    - target: {fileID: 1716754097586465329, guid: f1625f514c2d1c94ead5db89a8eb4762,
        type: 3}
      propertyPath: m_LocalPosition.x
      value: -3.7
      objectReference: {fileID: 0}
    - target: {fileID: 1716754097586465329, guid: f1625f514c2d1c94ead5db89a8eb4762,
        type: 3}
      propertyPath: m_LocalScale.x
      value: 3.6475015
      objectReference: {fileID: 0}
    - target: {fileID: 1716754097586465329, guid: f1625f514c2d1c94ead5db89a8eb4762,
        type: 3}
      propertyPath: m_LocalPosition.y
      value: -2.346
      objectReference: {fileID: 0}
    - target: {fileID: 1716754097586465329, guid: f1625f514c2d1c94ead5db89a8eb4762,
        type: 3}
      propertyPath: m_LocalScale.y
      value: 3.1164033
      objectReference: {fileID: 0}
    m_RemovedComponents: []
  m_SourcePrefab: {fileID: 100100000, guid: f1625f514c2d1c94ead5db89a8eb4762, type: 3}
