%YAML 1.1
%TAG !u! tag:unity3d.com,2011:
--- !u!74 &7400000
AnimationClip:
  m_ObjectHideFlags: 0
  m_CorrespondingSourceObject: {fileID: 0}
  m_PrefabInstance: {fileID: 0}
  m_PrefabAsset: {fileID: 0}
  m_Name: Idle
  serializedVersion: 6
  m_Legacy: 0
  m_Compressed: 0
  m_UseHighQualityCurve: 1
  m_RotationCurves: []
  m_CompressedRotationCurves: []
  m_EulerCurves: []
  m_PositionCurves: []
  m_ScaleCurves: []
  m_FloatCurves: []
  m_PPtrCurves:
  - curve:
    - time: 0
      value: {fileID: 21300000, guid: 266fd68f30229e64c9117b335e2809e0, type: 3}
    - time: 0.05
      value: {fileID: 21300000, guid: 391b9f2333fcdd14d855a3ebd398c104, type: 3}
    - time: 0.1
      value: {fileID: 21300000, guid: b964e34b9ade9874cbd934f54f3f4515, type: 3}
    - time: 0.15
      value: {fileID: 21300000, guid: adfa97f25ed2abc4e8b1cd0e29b1a452, type: 3}
    - time: 0.2
      value: {fileID: 21300000, guid: cdd3111dc85091f4d93b3744c2e9f2ed, type: 3}
    - time: 0.25
      value: {fileID: 21300000, guid: 97df78d4960255f48ab0553e1b657e69, type: 3}
    - time: 0.3
      value: {fileID: 21300000, guid: 09b264a9add68c14e974574765b5df6e, type: 3}
    - time: 0.35
      value: {fileID: 21300000, guid: f053ba8b4e99bd8498e2025f4cec1c6a, type: 3}
    - time: 0.4
      value: {fileID: 21300000, guid: 79c32261c3aaf6545a9de34dd2c21e11, type: 3}
    - time: 0.45
      value: {fileID: 21300000, guid: 912870b4e86ce2647be0406f4155c7f3, type: 3}
    attribute: m_Sprite
    path: 
    classID: 212
    script: {fileID: 0}
  m_SampleRate: 20
  m_WrapMode: 0
  m_Bounds:
    m_Center: {x: 0, y: 0, z: 0}
    m_Extent: {x: 0, y: 0, z: 0}
  m_ClipBindingConstant:
    genericBindings:
    - serializedVersion: 2
      path: 0
      attribute: 0
      script: {fileID: 0}
      typeID: 212
      customType: 23
      isPPtrCurve: 1
    pptrCurveMapping:
    - {fileID: 21300000, guid: 266fd68f30229e64c9117b335e2809e0, type: 3}
    - {fileID: 21300000, guid: 391b9f2333fcdd14d855a3ebd398c104, type: 3}
    - {fileID: 21300000, guid: b964e34b9ade9874cbd934f54f3f4515, type: 3}
    - {fileID: 21300000, guid: adfa97f25ed2abc4e8b1cd0e29b1a452, type: 3}
    - {fileID: 21300000, guid: cdd3111dc85091f4d93b3744c2e9f2ed, type: 3}
    - {fileID: 21300000, guid: 97df78d4960255f48ab0553e1b657e69, type: 3}
    - {fileID: 21300000, guid: 09b264a9add68c14e974574765b5df6e, type: 3}
    - {fileID: 21300000, guid: f053ba8b4e99bd8498e2025f4cec1c6a, type: 3}
    - {fileID: 21300000, guid: 79c32261c3aaf6545a9de34dd2c21e11, type: 3}
    - {fileID: 21300000, guid: 912870b4e86ce2647be0406f4155c7f3, type: 3}
  m_AnimationClipSettings:
    serializedVersion: 2
    m_AdditiveReferencePoseClip: {fileID: 0}
    m_AdditiveReferencePoseTime: 0
    m_StartTime: 0
    m_StopTime: 0.5
    m_OrientationOffsetY: 0
    m_Level: 0
    m_CycleOffset: 0
    m_HasAdditiveReferencePose: 0
    m_LoopTime: 1
    m_LoopBlend: 0
    m_LoopBlendOrientation: 0
    m_LoopBlendPositionY: 0
    m_LoopBlendPositionXZ: 0
    m_KeepOriginalOrientation: 0
    m_KeepOriginalPositionY: 1
    m_KeepOriginalPositionXZ: 0
    m_HeightFromFeet: 0
    m_Mirror: 0
  m_EditorCurves: []
  m_EulerEditorCurves: []
  m_HasGenericRootTransform: 0
  m_HasMotionFloatCurves: 0
  m_Events: []
