%YAML 1.1
%TAG !u! tag:unity3d.com,2011:
--- !u!74 &7400000
AnimationClip:
  m_ObjectHideFlags: 0
  m_CorrespondingSourceObject: {fileID: 0}
  m_PrefabInstance: {fileID: 0}
  m_PrefabAsset: {fileID: 0}
  m_Name: Walk
  serializedVersion: 6
  m_Legacy: 0
  m_Compressed: 0
  m_UseHighQualityCurve: 1
  m_RotationCurves: []
  m_CompressedRotationCurves: []
  m_EulerCurves: []
  m_PositionCurves: []
  m_ScaleCurves: []
  m_FloatCurves: []
  m_PPtrCurves:
  - curve:
    - time: 0
      value: {fileID: 21300000, guid: 6baffea3be1996b458bc1e2fc3b3736a, type: 3}
    - time: 0.05
      value: {fileID: 21300000, guid: 04fd18a6100022d42800259e9415c6f2, type: 3}
    - time: 0.1
      value: {fileID: 21300000, guid: 4af0e2f83c4f8884fa43a1bbf356c823, type: 3}
    - time: 0.15
      value: {fileID: 21300000, guid: 2d4e8602d06c50d44a93d4556d82abde, type: 3}
    - time: 0.2
      value: {fileID: 21300000, guid: 292c187e14b28e94bb660e533515f7eb, type: 3}
    - time: 0.25
      value: {fileID: 21300000, guid: 65d0f35a8bc8be941a4e3e5c685351f2, type: 3}
    - time: 0.3
      value: {fileID: 21300000, guid: 146484d47cb5d5f4d88ee018b37f1580, type: 3}
    - time: 0.35
      value: {fileID: 21300000, guid: 74a632fab4515fa49af4d0ce59495112, type: 3}
    - time: 0.4
      value: {fileID: 21300000, guid: dda45cfa3ce58334183e09a03b46387d, type: 3}
    - time: 0.45
      value: {fileID: 21300000, guid: 11d68a0a06b6ad54aa3283e545f3acbc, type: 3}
    attribute: m_Sprite
    path: 
    classID: 212
    script: {fileID: 0}
  m_SampleRate: 20
  m_WrapMode: 0
  m_Bounds:
    m_Center: {x: 0, y: 0, z: 0}
    m_Extent: {x: 0, y: 0, z: 0}
  m_ClipBindingConstant:
    genericBindings:
    - serializedVersion: 2
      path: 0
      attribute: 0
      script: {fileID: 0}
      typeID: 212
      customType: 23
      isPPtrCurve: 1
    pptrCurveMapping:
    - {fileID: 21300000, guid: 6baffea3be1996b458bc1e2fc3b3736a, type: 3}
    - {fileID: 21300000, guid: 04fd18a6100022d42800259e9415c6f2, type: 3}
    - {fileID: 21300000, guid: 4af0e2f83c4f8884fa43a1bbf356c823, type: 3}
    - {fileID: 21300000, guid: 2d4e8602d06c50d44a93d4556d82abde, type: 3}
    - {fileID: 21300000, guid: 292c187e14b28e94bb660e533515f7eb, type: 3}
    - {fileID: 21300000, guid: 65d0f35a8bc8be941a4e3e5c685351f2, type: 3}
    - {fileID: 21300000, guid: 146484d47cb5d5f4d88ee018b37f1580, type: 3}
    - {fileID: 21300000, guid: 74a632fab4515fa49af4d0ce59495112, type: 3}
    - {fileID: 21300000, guid: dda45cfa3ce58334183e09a03b46387d, type: 3}
    - {fileID: 21300000, guid: 11d68a0a06b6ad54aa3283e545f3acbc, type: 3}
  m_AnimationClipSettings:
    serializedVersion: 2
    m_AdditiveReferencePoseClip: {fileID: 0}
    m_AdditiveReferencePoseTime: 0
    m_StartTime: 0
    m_StopTime: 0.5
    m_OrientationOffsetY: 0
    m_Level: 0
    m_CycleOffset: 0
    m_HasAdditiveReferencePose: 0
    m_LoopTime: 1
    m_LoopBlend: 0
    m_LoopBlendOrientation: 0
    m_LoopBlendPositionY: 0
    m_LoopBlendPositionXZ: 0
    m_KeepOriginalOrientation: 0
    m_KeepOriginalPositionY: 1
    m_KeepOriginalPositionXZ: 0
    m_HeightFromFeet: 0
    m_Mirror: 0
  m_EditorCurves: []
  m_EulerEditorCurves: []
  m_HasGenericRootTransform: 0
  m_HasMotionFloatCurves: 0
  m_Events: []
