%YAML 1.1
%TAG !u! tag:unity3d.com,2011:
--- !u!1045 &1
EditorBuildSettings:
  m_ObjectHideFlags: 0
  serializedVersion: 2
  m_Scenes:
  - enabled: 1
    path: Assets/Fighter/Scenes/SampleScene.unity
    guid: 8c9cfa26abfee488c85f1582747f6a02
  - enabled: 1
    path: Assets/Fighter/InputSystem(Controller)/multiplayer/MP2.unity
    guid: e3c7b46c72770d84893ac85f5a4ab53d
  - enabled: 1
    path: Assets/RPG/CanviEscena/Combat.unity
    guid: ca18e1dba3b18f444aa0adbed3db2d8b
  - enabled: 1
    path: Assets/RPG/ODIN2/SaveOdin2.unity
    guid: 2e91df04cedcaae46a27776c131a16a9
  m_configObjects: {}
