%YAML 1.1
%TAG !u! tag:unity3d.com,2011:
--- !u!114 &11400000
MonoBehaviour:
  m_ObjectHideFlags: 0
  m_CorrespondingSourceObject: {fileID: 0}
  m_PrefabInstance: {fileID: 0}
  m_PrefabAsset: {fileID: 0}
  m_GameObject: {fileID: 0}
  m_Enabled: 1
  m_EditorHideFlags: 0
  m_Script: {fileID: 11500000, guid: be12400da0a0b6845ba293c402436c80, type: 3}
  m_Name: Cubo
  m_EditorClassIdentifier: 
  cosoName: Cubo
  description: Es un Cubo verde
  icon: {fileID: 21300000, guid: 1512cc195ab44f347a82ed5835f2061a, type: 3}
  notaFinal: 21
