%YAML 1.1
%TAG !u! tag:unity3d.com,2011:
--- !u!114 &11400000
MonoBehaviour:
  m_ObjectHideFlags: 0
  m_CorrespondingSourceObject: {fileID: 0}
  m_PrefabInstance: {fileID: 0}
  m_PrefabAsset: {fileID: 0}
  m_GameObject: {fileID: 0}
  m_Enabled: 1
  m_EditorHideFlags: 0
  m_Script: {fileID: 11500000, guid: be12400da0a0b6845ba293c402436c80, type: 3}
  m_Name: EsferaRepollo
  m_EditorClassIdentifier: 
  cosoName: Esfera Repollo
  description: "Una Esfera con un simp\xE1tico Repollo "
  icon: {fileID: 10907, guid: 0000000000000000f000000000000000, type: 0}
  notaFinal: 5
